labD/lab_D/only_SDRAM/testbench_SDRAM.vcd
$date
	Fri Jan 12 11:50:50 2024
$end
$version
	Icarus Verilog
$end
$timescale
	1ps
$end
$scope module testbench_SDRAM $end
$var wire 4 ! bram_mask [3:0] $end
$var wire 23 " ctrl_addr [22:0] $end
$var wire 1 # ctrl_in_valid $end
$var wire 1 $ rst_n $end
$var wire 32 % wbs_dat_i [31:0] $end
$var wire 1 & wbs_we_i $end
$var wire 32 ' wbs_dat_o [31:0] $end
$var wire 1 ( sdram_we $end
$var wire 1 ) sdram_ras $end
$var wire 1 * sdram_dqm $end
$var wire 1 + sdram_cs $end
$var wire 1 , sdram_cle $end
$var wire 1 - sdram_cas $end
$var wire 2 . sdram_ba [1:0] $end
$var wire 13 / sdram_a [12:0] $end
$var wire 32 0 d2c_data [31:0] $end
$var wire 1 1 ctrl_out_valid $end
$var wire 1 2 ctrl_busy $end
$var wire 32 3 c2d_data [31:0] $end
$var reg 1 4 clock $end
$var reg 1 5 rst $end
$scope module SDRAM $end
$var wire 1 6 Active_enable $end
$var wire 1 7 Aref_enable $end
$var wire 1 8 Burst_length_1 $end
$var wire 1 9 Burst_length_2 $end
$var wire 1 : Burst_length_4 $end
$var wire 1 ; Burst_length_8 $end
$var wire 1 < Burst_length_f $end
$var wire 1 = Burst_term $end
$var wire 1 4 Clk $end
$var wire 1 > Debug $end
$var wire 1 ? Dq_chk $end
$var wire 4 @ Dqm [3:0] $end
$var wire 32 A Dqo [31:0] $end
$var wire 1 B Mode_reg_enable $end
$var wire 1 C Prech_enable $end
$var wire 1 D Read_enable $end
$var wire 1 $ Rst_n $end
$var wire 1 E Sys_clk $end
$var wire 1 F Write_enable $end
$var wire 1 G Write_burst_mode $end
$var wire 1 ( We_n $end
$var wire 1 ) Ras_n $end
$var wire 32 H Dqi [31:0] $end
$var wire 32 I Dq_temp [31:0] $end
$var wire 1 + Cs_n $end
$var wire 1 , Cke $end
$var wire 1 - Cas_n $end
$var wire 3 J Cas_latency [2:0] $end
$var wire 2 K Ba [1:0] $end
$var wire 13 L Addr [12:0] $end
$var reg 1 M Act_b0 $end
$var reg 1 N Act_b1 $end
$var reg 1 O Act_b2 $end
$var reg 1 P Act_b3 $end
$var reg 13 Q B0_row_addr [12:0] $end
$var reg 13 R B1_row_addr [12:0] $end
$var reg 13 S B2_row_addr [12:0] $end
$var reg 13 T B3_row_addr [12:0] $end
$var reg 2 U Bank [1:0] $end
$var reg 2 V Bank_temp [1:0] $end
$var reg 2 W Bank_temp_buf [1:0] $end
$var reg 11 X Burst_counter [10:0] $end
$var reg 11 Y Col [10:0] $end
$var reg 11 Z Col_brst [10:0] $end
$var reg 11 [ Col_temp [10:0] $end
$var reg 1 \ Data_in_enable $end
$var reg 1 ] Data_out_enable $end
$var reg 1 ^ Data_out_enable_buf $end
$var reg 32 _ Dq_dqm [31:0] $end
$var reg 32 ` Dq_dqm_1 [31:0] $end
$var reg 32 a Dq_reg [31:0] $end
$var reg 2 b Dqm_reg0 [1:0] $end
$var reg 2 c Dqm_reg1 [1:0] $end
$var reg 1 d Error $end
$var reg 13 e Mode_reg [12:0] $end
$var reg 1 f Pc_b0 $end
$var reg 1 g Pc_b1 $end
$var reg 1 h Pc_b2 $end
$var reg 1 i Pc_b3 $end
$var reg 2 j RW_interrupt_bank [1:0] $end
$var reg 13 k Row [12:0] $end
$var reg 4 l bren [3:0] $end
$var reg 4 m bwen [3:0] $end
$var reg 1 n iCKe_f $end
$var reg 1 o iCKe_r $end
$var integer 32 p i [31:0] $end
$scope module Bank0 $end
$var wire 1 E clk $end
$var wire 32 q d [31:0] $end
$var wire 11 r raddr [10:0] $end
$var wire 1 s re $end
$var wire 11 t waddr [10:0] $end
$var wire 1 u we $end
$var reg 32 v q [31:0] $end
$upscope $end
$scope module Bank1 $end
$var wire 1 E clk $end
$var wire 32 w d [31:0] $end
$var wire 11 x raddr [10:0] $end
$var wire 1 y re $end
$var wire 11 z waddr [10:0] $end
$var wire 1 { we $end
$var reg 32 | q [31:0] $end
$upscope $end
$scope module Bank2 $end
$var wire 1 E clk $end
$var wire 32 } d [31:0] $end
$var wire 11 ~ raddr [10:0] $end
$var wire 1 !" re $end
$var wire 11 "" waddr [10:0] $end
$var wire 1 #" we $end
$var reg 32 $" q [31:0] $end
$upscope $end
$scope module Bank3 $end
$var wire 1 E clk $end
$var wire 32 %" d [31:0] $end
$var wire 11 &" raddr [10:0] $end
$var wire 1 '" re $end
$var wire 11 (" waddr [10:0] $end
$var wire 1 )" we $end
$var reg 32 *" q [31:0] $end
$upscope $end
$scope task Burst_decode $end
$upscope $end
$upscope $end
$scope module SDRAM_controller $end
$var wire 1 4 clk $end
$var wire 32 +" data_in [31:0] $end
$var wire 32 ," data_out [31:0] $end
$var wire 1 # in_valid $end
$var wire 1 1 out_valid $end
$var wire 1 5 rst $end
$var wire 1 & rw $end
$var wire 13 -" sdram_a [12:0] $end
$var wire 2 ." sdram_ba [1:0] $end
$var wire 1 , sdram_cle $end
$var wire 32 /" sdram_dqi [31:0] $end
$var wire 1 * sdram_dqm $end
$var wire 23 0" user_addr [22:0] $end
$var wire 1 ( sdram_we $end
$var wire 1 ) sdram_ras $end
$var wire 32 1" sdram_dqo [31:0] $end
$var wire 1 + sdram_cs $end
$var wire 1 - sdram_cas $end
$var wire 1 2 busy $end
$var wire 23 2" addr [22:0] $end
$var wire 13 3" Mapped_RA [12:0] $end
$var wire 8 4" Mapped_CA [7:0] $end
$var wire 2 5" Mapped_BA [1:0] $end
$var reg 13 6" a_d [12:0] $end
$var reg 13 7" a_q [12:0] $end
$var reg 23 8" addr_d [22:0] $end
$var reg 23 9" addr_q [22:0] $end
$var reg 2 :" ba_d [1:0] $end
$var reg 2 ;" ba_q [1:0] $end
$var reg 1 <" cle_d $end
$var reg 1 =" cle_q $end
$var reg 4 >" cmd_d [3:0] $end
$var reg 4 ?" cmd_q [3:0] $end
$var reg 32 @" data_d [31:0] $end
$var reg 32 A" data_q [31:0] $end
$var reg 16 B" delay_ctr_d [15:0] $end
$var reg 16 C" delay_ctr_q [15:0] $end
$var reg 32 D" dq_d [31:0] $end
$var reg 1 E" dq_en_d $end
$var reg 1 F" dq_en_q $end
$var reg 32 G" dq_q [31:0] $end
$var reg 32 H" dqi_d [31:0] $end
$var reg 32 I" dqi_q [31:0] $end
$var reg 1 J" dqm_d $end
$var reg 1 K" dqm_q $end
$var reg 4 L" next_state_d [3:0] $end
$var reg 4 M" next_state_q [3:0] $end
$var reg 1 N" out_valid_d $end
$var reg 1 O" out_valid_q $end
$var reg 3 P" precharge_bank_d [2:0] $end
$var reg 3 Q" precharge_bank_q [2:0] $end
$var reg 1 R" ready_d $end
$var reg 1 S" ready_q $end
$var reg 10 T" refresh_ctr_d [9:0] $end
$var reg 10 U" refresh_ctr_q [9:0] $end
$var reg 1 V" refresh_flag_d $end
$var reg 1 W" refresh_flag_q $end
$var reg 4 X" row_open_d [3:0] $end
$var reg 4 Y" row_open_q [3:0] $end
$var reg 1 Z" rw_op_d $end
$var reg 1 [" rw_op_q $end
$var reg 23 \" saved_addr_d [22:0] $end
$var reg 23 ]" saved_addr_q [22:0] $end
$var reg 32 ^" saved_data_d [31:0] $end
$var reg 32 _" saved_data_q [31:0] $end
$var reg 1 `" saved_rw_d $end
$var reg 1 a" saved_rw_q $end
$var reg 4 b" state_d [3:0] $end
$var reg 4 c" state_q [3:0] $end
$var integer 32 d" i [31:0] $end
$upscope $end
$upscope $end
$enddefinitions $end
#0
$dumpvars
b100 d"
bx c"
b0 b"
xa"
x`"
bx _"
bx ^"
bx ]"
bx \"
x["
xZ"
bx Y"
bx X"
xW"
xV"
bx U"
bx T"
xS"
xR"
bx Q"
bx P"
xO"
0N"
bx M"
bx L"
xK"
0J"
bx I"
b0 H"
bx G"
xF"
0E"
bx D"
bx C"
bx B"
bx A"
bx @"
bx ?"
b111 >"
x="
x<"
bx ;"
b0 :"
bx 9"
bx 8"
bx 7"
b0 6"
bz 5"
bz 4"
bz 3"
bz 2"
bx 1"
bz 0"
b0 /"
bx ."
bx -"
bx ,"
bz +"
bx *"
0)"
bx ("
0'"
bx &"
b0 %"
bx $"
0#"
bx ""
0!"
bx ~
b0 }
bx |
0{
bx z
0y
bx x
b0 w
bx v
0u
bx t
0s
bx r
b0 q
b100 p
0o
0n
b0 m
b0 l
bx k
bx j
0i
0h
0g
0f
b1000110000 e
0d
b0 c
b0 b
b0 a
bx `
b0 _
0^
0]
0\
bx [
bx Z
bx Y
bx X
b0 W
b0 V
bx U
b0 T
b0 S
b0 R
b0 Q
0P
0O
0N
0M
bx L
bx K
b11 J
b0 I
bx H
1G
xF
0E
xD
xC
xB
b0 A
bz @
0?
1>
x=
0<
0;
0:
09
18
x7
x6
15
04
bx 3
x2
x1
b0 0
bx /
bx .
x-
x,
x+
x*
x)
x(
bx '
z&
bz %
0$
z#
bz "
bz !
$end
#12500
06
0D
07
0F
0C
0B
0=
0+
1)
1-
1(
bz 3
bz H
bz 1"
b1 T"
0V"
b110 L"
b0 B"
b100010 6"
b0 X"
1R"
1<"
01
0O"
b0 I"
b0 /
b0 L
b0 -"
b0 7"
b0 .
b0 K
b0 ."
b0 ;"
0*
0K"
b111 ?"
12
0S"
b0 c"
0F"
0,
0="
b1 b"
b100 d"
14
#25000
04
#37500
b0 C"
b0 Y"
b1 U"
0W"
b110 M"
b100010 /
b100010 L
b100010 -"
b100010 7"
1R"
b1 T"
0V"
b0 X"
b0 B"
b110 L"
b1 b"
b100010 6"
1<"
b100 d"
14
#50000
04
#62500
1R"
b1 T"
b1 b"
b100010 6"
1<"
b100 d"
14
#75000
04
#87500
1R"
b1 T"
b1 b"
b100010 6"
1<"
b100 d"
14
#100000
04
#112500
1R"
b1 T"
b1 b"
b100010 6"
1<"
b100 d"
14
#125000
04
#137500
1R"
b1 T"
b1 b"
b100010 6"
1<"
b100 d"
14
#150000
04
#162500
1R"
b1 T"
b1 b"
b100010 6"
1<"
b100 d"
14
#175000
04
#187500
1R"
b1 T"
b1 b"
b100010 6"
1<"
b100 d"
14
#200000
1$
04
05
#212500
b1111111111111111 B"
02
1S"
b1 c"
1,
1="
1R"
b10 T"
b110 b"
b0 6"
1<"
b100 d"
14
#225000
04
#237500
b11 T"
b1111111111111111 C"
b10 U"
b0 /
b0 L
b0 -"
b0 7"
b110 c"
b1111111111111111 B"
b110 b"
1o
b100 d"
14
#250000
1n
04
#262500
b100 T"
b0 `
b11 U"
1E
b100 d"
14
#275000
0E
04
#287500
b101 T"
b100 U"
1E
b100 d"
14
#300000
0E
04
#312500
b110 T"
b101 U"
1E
b100 d"
14
#325000
0E
04
#337500
b111 T"
b110 U"
1E
b100 d"
14
#350000
0E
04
#362500
b1000 T"
b111 U"
1E
b100 d"
14
#375000
0E
04
#387500
b1001 T"
b1000 U"
1E
b100 d"
14
#400000
0E
04
#412500
b1010 T"
b1001 U"
1E
b100 d"
14
#425000
0E
04
#437500
b1011 T"
b1010 U"
1E
b100 d"
14
#450000
0E
04
#462500
b1100 T"
b1011 U"
1E
b100 d"
14
#475000
0E
04
#487500
b1101 T"
b1100 U"
1E
b100 d"
14
#500000
0E
04
#512500
b1110 T"
b1101 U"
1E
b100 d"
14
#525000
0E
04
#537500
b1111 T"
b1110 U"
1E
b100 d"
14
#550000
0E
04
#562500
b10000 T"
b1111 U"
1E
b100 d"
14
#575000
0E
04
#587500
b10001 T"
b10000 U"
1E
b100 d"
14
#600000
0E
04
#612500
b10010 T"
b10001 U"
1E
b100 d"
14
#625000
0E
04
#637500
b10011 T"
b10010 U"
1E
b100 d"
14
#650000
0E
04
#662500
b10100 T"
b10011 U"
1E
b100 d"
14
#675000
0E
04
#687500
b10101 T"
b10100 U"
1E
b100 d"
14
#700000
0E
04
#712500
b10110 T"
b10101 U"
1E
b100 d"
14
#725000
0E
04
#737500
b10111 T"
b10110 U"
1E
b100 d"
14
#750000
0E
04
#762500
b11000 T"
b10111 U"
1E
b100 d"
14
#775000
0E
04
#787500
b11001 T"
b11000 U"
1E
b100 d"
14
#800000
0E
04
#812500
b11010 T"
b11001 U"
1E
b100 d"
14
#825000
0E
04
#837500
b11011 T"
b11010 U"
1E
b100 d"
14
#850000
0E
04
#862500
b11100 T"
b11011 U"
1E
b100 d"
14
#875000
0E
04
#887500
b11101 T"
b11100 U"
1E
b100 d"
14
#900000
0E
04
#912500
b11110 T"
b11101 U"
1E
b100 d"
14
#925000
0E
04
#937500
b11111 T"
b11110 U"
1E
b100 d"
14
#950000
0E
04
#962500
b100000 T"
b11111 U"
1E
b100 d"
14
#975000
0E
04
#987500
b100001 T"
b100000 U"
1E
b100 d"
14
#1000000
0E
04
#1012500
b100010 T"
b100001 U"
1E
b100 d"
14
#1025000
0E
04
#1037500
b100011 T"
b100010 U"
1E
b100 d"
14
#1050000
0E
04
#1062500
b100100 T"
b100011 U"
1E
b100 d"
14
#1075000
0E
04
#1087500
b100101 T"
b100100 U"
1E
b100 d"
14
#1100000
0E
04
#1112500
b100110 T"
b100101 U"
1E
b100 d"
14
#1125000
0E
04
#1137500
b100111 T"
b100110 U"
1E
b100 d"
14
#1150000
0E
04
#1162500
b101000 T"
b100111 U"
1E
b100 d"
14
#1175000
0E
04
#1187500
b101001 T"
b101000 U"
1E
b100 d"
14
#1200000
0E
04
#1212500
b101010 T"
b101001 U"
1E
b100 d"
14
#1225000
0E
04
#1237500
b101011 T"
b101010 U"
1E
b100 d"
14
#1250000
0E
04
#1262500
b101100 T"
b101011 U"
1E
b100 d"
14
#1275000
0E
04
#1287500
b101101 T"
b101100 U"
1E
b100 d"
14
#1300000
0E
04
#1312500
b101110 T"
b101101 U"
1E
b100 d"
14
#1325000
0E
04
#1337500
b101111 T"
b101110 U"
1E
b100 d"
14
#1350000
0E
04
#1362500
b110000 T"
b101111 U"
1E
b100 d"
14
#1375000
0E
04
#1387500
b110001 T"
b110000 U"
1E
b100 d"
14
#1400000
0E
04
#1412500
b110010 T"
b110001 U"
1E
b100 d"
14
#1425000
0E
04
#1437500
b110011 T"
b110010 U"
1E
b100 d"
14
#1450000
0E
04
#1462500
b110100 T"
b110011 U"
1E
b100 d"
14
#1475000
0E
04
#1487500
b110101 T"
b110100 U"
1E
b100 d"
14
#1500000
0E
04
#1512500
b110110 T"
b110101 U"
1E
b100 d"
14
#1525000
0E
04
#1537500
b110111 T"
b110110 U"
1E
b100 d"
14
#1550000
0E
04
#1562500
b111000 T"
b110111 U"
1E
b100 d"
14
#1575000
0E
04
#1587500
b111001 T"
b111000 U"
1E
b100 d"
14
#1600000
0E
04
#1612500
b111010 T"
b111001 U"
1E
b100 d"
14
#1625000
0E
04
#1637500
b111011 T"
b111010 U"
1E
b100 d"
14
#1650000
0E
04
#1662500
b111100 T"
b111011 U"
1E
b100 d"
14
#1675000
0E
04
#1687500
b111101 T"
b111100 U"
1E
b100 d"
14
#1700000
0E
04
#1712500
b111110 T"
b111101 U"
1E
b100 d"
14
#1725000
0E
04
#1737500
b111111 T"
b111110 U"
1E
b100 d"
14
#1750000
0E
04
#1762500
b1000000 T"
b111111 U"
1E
b100 d"
14
#1775000
0E
04
#1787500
b1000001 T"
b1000000 U"
1E
b100 d"
14
#1800000
0E
04
#1812500
b1000010 T"
b1000001 U"
1E
b100 d"
14
#1825000
0E
04
#1837500
b1000011 T"
b1000010 U"
1E
b100 d"
14
#1850000
0E
04
#1862500
b1000100 T"
b1000011 U"
1E
b100 d"
14
#1875000
0E
04
#1887500
b1000101 T"
b1000100 U"
1E
b100 d"
14
#1900000
0E
04
#1912500
b1000110 T"
b1000101 U"
1E
b100 d"
14
#1925000
0E
04
#1937500
b1000111 T"
b1000110 U"
1E
b100 d"
14
#1950000
0E
04
#1962500
b1001000 T"
b1000111 U"
1E
b100 d"
14
#1975000
0E
04
#1987500
b1001001 T"
b1001000 U"
1E
b100 d"
14
#2000000
0E
04
#2012500
b1001010 T"
b1001001 U"
1E
b100 d"
14
#2025000
0E
04
#2037500
b1001011 T"
b1001010 U"
1E
b100 d"
14
#2050000
0E
04
#2062500
b1001100 T"
b1001011 U"
1E
b100 d"
14
#2075000
0E
04
#2087500
b1001101 T"
b1001100 U"
1E
b100 d"
14
#2100000
0E
04
#2112500
b1001110 T"
b1001101 U"
1E
b100 d"
14
#2125000
0E
04
#2137500
b1001111 T"
b1001110 U"
1E
b100 d"
14
#2150000
0E
04
#2162500
b1010000 T"
b1001111 U"
1E
b100 d"
14
#2175000
0E
04
#2187500
b1010001 T"
b1010000 U"
1E
b100 d"
14
#2200000
0E
04
#2212500
b1010010 T"
b1010001 U"
1E
b100 d"
14
#2225000
0E
04
#2237500
b1010011 T"
b1010010 U"
1E
b100 d"
14
#2250000
0E
04
#2262500
b1010100 T"
b1010011 U"
1E
b100 d"
14
#2275000
0E
04
#2287500
b1010101 T"
b1010100 U"
1E
b100 d"
14
#2300000
0E
04
#2312500
b1010110 T"
b1010101 U"
1E
b100 d"
14
#2325000
0E
04
#2337500
b1010111 T"
b1010110 U"
1E
b100 d"
14
#2350000
0E
04
#2362500
b1011000 T"
b1010111 U"
1E
b100 d"
14
#2375000
0E
04
#2387500
b1011001 T"
b1011000 U"
1E
b100 d"
14
#2400000
0E
04
#2412500
b1011010 T"
b1011001 U"
1E
b100 d"
14
#2425000
0E
04
#2437500
b1011011 T"
b1011010 U"
1E
b100 d"
14
#2450000
0E
04
#2462500
b1011100 T"
b1011011 U"
1E
b100 d"
14
#2475000
0E
04
#2487500
b1011101 T"
b1011100 U"
1E
b100 d"
14
#2500000
0E
04
#2512500
b1011110 T"
b1011101 U"
1E
b100 d"
14
#2525000
0E
04
#2537500
b1011111 T"
b1011110 U"
1E
b100 d"
14
#2550000
0E
04
#2562500
b1100000 T"
b1011111 U"
1E
b100 d"
14
#2575000
0E
04
#2587500
b1100001 T"
b1100000 U"
1E
b100 d"
14
#2600000
0E
04
#2612500
b1100010 T"
b1100001 U"
1E
b100 d"
14
#2625000
0E
04
#2637500
b1100011 T"
b1100010 U"
1E
b100 d"
14
#2650000
0E
04
#2662500
b1100100 T"
b1100011 U"
1E
b100 d"
14
#2675000
0E
04
#2687500
b1100101 T"
b1100100 U"
1E
b100 d"
14
#2700000
0E
04
#2712500
b1100110 T"
b1100101 U"
1E
b100 d"
14
#2725000
0E
04
#2737500
b1100111 T"
b1100110 U"
1E
b100 d"
14
#2750000
0E
04
#2762500
b1101000 T"
b1100111 U"
1E
b100 d"
14
#2775000
0E
04
#2787500
b1101001 T"
b1101000 U"
1E
b100 d"
14
#2800000
0E
04
#2812500
b1101010 T"
b1101001 U"
1E
b100 d"
14
#2825000
0E
04
#2837500
b1101011 T"
b1101010 U"
1E
b100 d"
14
#2850000
0E
04
#2862500
b1101100 T"
b1101011 U"
1E
b100 d"
14
#2875000
0E
04
#2887500
b1101101 T"
b1101100 U"
1E
b100 d"
14
#2900000
0E
04
#2912500
b1101110 T"
b1101101 U"
1E
b100 d"
14
#2925000
0E
04
#2937500
b1101111 T"
b1101110 U"
1E
b100 d"
14
#2950000
0E
04
#2962500
b1110000 T"
b1101111 U"
1E
b100 d"
14
#2975000
0E
04
#2987500
b1110001 T"
b1110000 U"
1E
b100 d"
14
#3000000
0E
04
#3012500
b1110010 T"
b1110001 U"
1E
b100 d"
14
#3025000
0E
04
#3037500
b1110011 T"
b1110010 U"
1E
b100 d"
14
#3050000
0E
04
#3062500
b1110100 T"
b1110011 U"
1E
b100 d"
14
#3075000
0E
04
#3087500
b1110101 T"
b1110100 U"
1E
b100 d"
14
#3100000
0E
04
#3112500
b1110110 T"
b1110101 U"
1E
b100 d"
14
#3125000
0E
04
#3137500
b1110111 T"
b1110110 U"
1E
b100 d"
14
#3150000
0E
04
#3162500
b1111000 T"
b1110111 U"
1E
b100 d"
14
#3175000
0E
04
#3187500
b1111001 T"
b1111000 U"
1E
b100 d"
14
#3200000
0E
04
#3212500
b1111010 T"
b1111001 U"
1E
b100 d"
14
#3225000
0E
04
#3237500
b1111011 T"
b1111010 U"
1E
b100 d"
14
#3250000
0E
04
#3262500
b1111100 T"
b1111011 U"
1E
b100 d"
14
#3275000
0E
04
#3287500
b1111101 T"
b1111100 U"
1E
b100 d"
14
#3300000
0E
04
#3312500
b1111110 T"
b1111101 U"
1E
b100 d"
14
#3325000
0E
04
#3337500
b1111111 T"
b1111110 U"
1E
b100 d"
14
#3350000
0E
04
#3362500
b10000000 T"
b1111111 U"
1E
b100 d"
14
#3375000
0E
04
#3387500
b10000001 T"
b10000000 U"
1E
b100 d"
14
#3400000
0E
04
#3412500
b10000010 T"
b10000001 U"
1E
b100 d"
14
#3425000
0E
04
#3437500
b10000011 T"
b10000010 U"
1E
b100 d"
14
#3450000
0E
04
#3462500
b10000100 T"
b10000011 U"
1E
b100 d"
14
#3475000
0E
04
#3487500
b10000101 T"
b10000100 U"
1E
b100 d"
14
#3500000
0E
04
#3512500
b10000110 T"
b10000101 U"
1E
b100 d"
14
#3525000
0E
04
#3537500
b10000111 T"
b10000110 U"
1E
b100 d"
14
#3550000
0E
04
#3562500
b10001000 T"
b10000111 U"
1E
b100 d"
14
#3575000
0E
04
#3587500
b10001001 T"
b10001000 U"
1E
b100 d"
14
#3600000
0E
04
#3612500
b10001010 T"
b10001001 U"
1E
b100 d"
14
#3625000
0E
04
#3637500
b10001011 T"
b10001010 U"
1E
b100 d"
14
#3650000
0E
04
#3662500
b10001100 T"
b10001011 U"
1E
b100 d"
14
#3675000
0E
04
#3687500
b10001101 T"
b10001100 U"
1E
b100 d"
14
#3700000
0E
04
#3712500
b10001110 T"
b10001101 U"
1E
b100 d"
14
#3725000
0E
04
#3737500
b10001111 T"
b10001110 U"
1E
b100 d"
14
#3750000
0E
04
#3762500
b10010000 T"
b10001111 U"
1E
b100 d"
14
#3775000
0E
04
#3787500
b10010001 T"
b10010000 U"
1E
b100 d"
14
#3800000
0E
04
#3812500
b10010010 T"
b10010001 U"
1E
b100 d"
14
#3825000
0E
04
#3837500
b10010011 T"
b10010010 U"
1E
b100 d"
14
#3850000
0E
04
#3862500
b10010100 T"
b10010011 U"
1E
b100 d"
14
#3875000
0E
04
#3887500
b10010101 T"
b10010100 U"
1E
b100 d"
14
#3900000
0E
04
#3912500
b10010110 T"
b10010101 U"
1E
b100 d"
14
#3925000
0E
04
#3937500
b10010111 T"
b10010110 U"
1E
b100 d"
14
#3950000
0E
04
#3962500
b10011000 T"
b10010111 U"
1E
b100 d"
14
#3975000
0E
04
#3987500
b10011001 T"
b10011000 U"
1E
b100 d"
14
#4000000
0E
04
#4012500
b10011010 T"
b10011001 U"
1E
b100 d"
14
#4025000
0E
04
#4037500
b10011011 T"
b10011010 U"
1E
b100 d"
14
#4050000
0E
04
#4062500
b10011100 T"
b10011011 U"
1E
b100 d"
14
#4075000
0E
04
#4087500
b10011101 T"
b10011100 U"
1E
b100 d"
14
#4100000
0E
04
#4112500
b10011110 T"
b10011101 U"
1E
b100 d"
14
#4125000
0E
04
#4137500
b10011111 T"
b10011110 U"
1E
b100 d"
14
#4150000
0E
04
#4162500
b10100000 T"
b10011111 U"
1E
b100 d"
14
#4175000
0E
04
#4187500
b10100001 T"
b10100000 U"
1E
b100 d"
14
#4200000
0E
04
#4212500
b10100010 T"
b10100001 U"
1E
b100 d"
14
#4225000
0E
04
#4237500
b10100011 T"
b10100010 U"
1E
b100 d"
14
#4250000
0E
04
#4262500
b10100100 T"
b10100011 U"
1E
b100 d"
14
#4275000
0E
04
#4287500
b10100101 T"
b10100100 U"
1E
b100 d"
14
#4300000
0E
04
#4312500
b10100110 T"
b10100101 U"
1E
b100 d"
14
#4325000
0E
04
#4337500
b10100111 T"
b10100110 U"
1E
b100 d"
14
#4350000
0E
04
#4362500
b10101000 T"
b10100111 U"
1E
b100 d"
14
#4375000
0E
04
#4387500
b10101001 T"
b10101000 U"
1E
b100 d"
14
#4400000
0E
04
#4412500
b10101010 T"
b10101001 U"
1E
b100 d"
14
#4425000
0E
04
#4437500
b10101011 T"
b10101010 U"
1E
b100 d"
14
#4450000
0E
04
#4462500
b10101100 T"
b10101011 U"
1E
b100 d"
14
#4475000
0E
04
#4487500
b10101101 T"
b10101100 U"
1E
b100 d"
14
#4500000
0E
04
#4512500
b10101110 T"
b10101101 U"
1E
b100 d"
14
#4525000
0E
04
#4537500
b10101111 T"
b10101110 U"
1E
b100 d"
14
#4550000
0E
04
#4562500
b10110000 T"
b10101111 U"
1E
b100 d"
14
#4575000
0E
04
#4587500
b10110001 T"
b10110000 U"
1E
b100 d"
14
#4600000
0E
04
#4612500
b10110010 T"
b10110001 U"
1E
b100 d"
14
#4625000
0E
04
#4637500
b10110011 T"
b10110010 U"
1E
b100 d"
14
#4650000
0E
04
#4662500
b10110100 T"
b10110011 U"
1E
b100 d"
14
#4675000
0E
04
#4687500
b10110101 T"
b10110100 U"
1E
b100 d"
14
#4700000
0E
04
#4712500
b10110110 T"
b10110101 U"
1E
b100 d"
14
#4725000
0E
04
#4737500
b10110111 T"
b10110110 U"
1E
b100 d"
14
#4750000
0E
04
#4762500
b10111000 T"
b10110111 U"
1E
b100 d"
14
#4775000
0E
04
#4787500
b10111001 T"
b10111000 U"
1E
b100 d"
14
#4800000
0E
04
#4812500
b10111010 T"
b10111001 U"
1E
b100 d"
14
#4825000
0E
04
#4837500
b10111011 T"
b10111010 U"
1E
b100 d"
14
#4850000
0E
04
#4862500
b10111100 T"
b10111011 U"
1E
b100 d"
14
#4875000
0E
04
#4887500
b10111101 T"
b10111100 U"
1E
b100 d"
14
#4900000
0E
04
#4912500
b10111110 T"
b10111101 U"
1E
b100 d"
14
#4925000
0E
04
#4937500
b10111111 T"
b10111110 U"
1E
b100 d"
14
#4950000
0E
04
#4962500
b11000000 T"
b10111111 U"
1E
b100 d"
14
#4975000
0E
04
#4987500
b11000001 T"
b11000000 U"
1E
b100 d"
14
#5000000
0E
04
#5012500
b11000010 T"
b11000001 U"
1E
b100 d"
14
#5025000
0E
04
#5037500
b11000011 T"
b11000010 U"
1E
b100 d"
14
#5050000
0E
04
#5062500
b11000100 T"
b11000011 U"
1E
b100 d"
14
#5075000
0E
04
#5087500
b11000101 T"
b11000100 U"
1E
b100 d"
14
#5100000
0E
04
#5112500
b11000110 T"
b11000101 U"
1E
b100 d"
14
#5125000
0E
04
#5137500
b11000111 T"
b11000110 U"
1E
b100 d"
14
#5150000
0E
04
#5162500
b11001000 T"
b11000111 U"
1E
b100 d"
14
#5175000
0E
04
#5187500
b11001001 T"
b11001000 U"
1E
b100 d"
14
#5200000
0E
04
#5212500
b11001010 T"
b11001001 U"
1E
b100 d"
14
#5225000
0E
04
#5237500
b11001011 T"
b11001010 U"
1E
b100 d"
14
#5250000
0E
04
#5262500
b11001100 T"
b11001011 U"
1E
b100 d"
14
#5275000
0E
04
#5287500
b11001101 T"
b11001100 U"
1E
b100 d"
14
#5300000
0E
04
#5312500
b11001110 T"
b11001101 U"
1E
b100 d"
14
#5325000
0E
04
#5337500
b11001111 T"
b11001110 U"
1E
b100 d"
14
#5350000
0E
04
#5362500
b11010000 T"
b11001111 U"
1E
b100 d"
14
#5375000
0E
04
#5387500
b11010001 T"
b11010000 U"
1E
b100 d"
14
#5400000
0E
04
#5412500
b11010010 T"
b11010001 U"
1E
b100 d"
14
#5425000
0E
04
#5437500
b11010011 T"
b11010010 U"
1E
b100 d"
14
#5450000
0E
04
#5462500
b11010100 T"
b11010011 U"
1E
b100 d"
14
#5475000
0E
04
#5487500
b11010101 T"
b11010100 U"
1E
b100 d"
14
#5500000
0E
04
#5512500
b11010110 T"
b11010101 U"
1E
b100 d"
14
#5525000
0E
04
#5537500
b11010111 T"
b11010110 U"
1E
b100 d"
14
#5550000
0E
04
#5562500
b11011000 T"
b11010111 U"
1E
b100 d"
14
#5575000
0E
04
#5587500
b11011001 T"
b11011000 U"
1E
b100 d"
14
#5600000
0E
04
#5612500
b11011010 T"
b11011001 U"
1E
b100 d"
14
#5625000
0E
04
#5637500
b11011011 T"
b11011010 U"
1E
b100 d"
14
#5650000
0E
04
#5662500
b11011100 T"
b11011011 U"
1E
b100 d"
14
#5675000
0E
04
#5687500
b11011101 T"
b11011100 U"
1E
b100 d"
14
#5700000
0E
04
#5712500
b11011110 T"
b11011101 U"
1E
b100 d"
14
#5725000
0E
04
#5737500
b11011111 T"
b11011110 U"
1E
b100 d"
14
#5750000
0E
04
#5762500
b11100000 T"
b11011111 U"
1E
b100 d"
14
#5775000
0E
04
#5787500
b11100001 T"
b11100000 U"
1E
b100 d"
14
#5800000
0E
04
#5812500
b11100010 T"
b11100001 U"
1E
b100 d"
14
#5825000
0E
04
#5837500
b11100011 T"
b11100010 U"
1E
b100 d"
14
#5850000
0E
04
#5862500
b11100100 T"
b11100011 U"
1E
b100 d"
14
#5875000
0E
04
#5887500
b11100101 T"
b11100100 U"
1E
b100 d"
14
#5900000
0E
04
#5912500
b11100110 T"
b11100101 U"
1E
b100 d"
14
#5925000
0E
04
#5937500
b11100111 T"
b11100110 U"
1E
b100 d"
14
#5950000
0E
04
#5962500
b11101000 T"
b11100111 U"
1E
b100 d"
14
#5975000
0E
04
#5987500
b11101001 T"
b11101000 U"
1E
b100 d"
14
#6000000
0E
04
#6012500
b11101010 T"
b11101001 U"
1E
b100 d"
14
#6025000
0E
04
#6037500
b11101011 T"
b11101010 U"
1E
b100 d"
14
#6050000
0E
04
#6062500
b11101100 T"
b11101011 U"
1E
b100 d"
14
#6075000
0E
04
#6087500
b11101101 T"
b11101100 U"
1E
b100 d"
14
#6100000
0E
04
#6112500
b11101110 T"
b11101101 U"
1E
b100 d"
14
#6125000
0E
04
#6137500
b11101111 T"
b11101110 U"
1E
b100 d"
14
#6150000
0E
04
