lab3/lab_3/fir/fir.vcd
$date
   Wed Oct 25 04:02:09 2023
$end
$version
  2022.1
$end
$timescale
  1ps
$end
$scope module fir_tb $end
$var wire 1 ! awready $end
$var wire 1 " wready $end
$var reg 1 # awvalid $end
$var reg 12 $ awaddr [11:0] $end
$var reg 1 % wvalid $end
$var reg 32 & wdata [31:0] $end
$var wire 1 ' arready $end
$var reg 1 ( rready $end
$var reg 1 ) arvalid $end
$var reg 12 * araddr [11:0] $end
$var wire 1 + rvalid $end
$var wire 32 , rdata [31:0] $end
$var reg 1 - ss_tvalid $end
$var reg 32 . ss_tdata [31:0] $end
$var reg 1 / ss_tlast $end
$var wire 1 0 ss_tready $end
$var reg 1 1 sm_tready $end
$var wire 1 2 sm_tvalid $end
$var wire 32 3 sm_tdata [31:0] $end
$var wire 1 4 sm_tlast $end
$var reg 1 5 axis_clk $end
$var reg 1 6 axis_rst_n $end
$var wire 4 7 tap_WE [3:0] $end
$var wire 1 8 tap_EN $end
$var wire 32 9 tap_Di [31:0] $end
$var wire 12 : tap_A [11:0] $end
$var wire 32 ; tap_Do [31:0] $end
$var wire 4 < data_WE [3:0] $end
$var wire 1 = data_EN $end
$var wire 32 > data_Di [31:0] $end
$var wire 12 ? data_A [11:0] $end
$var wire 32 @ data_Do [31:0] $end
$var integer 32 A idx [31:0] $end
$var integer 32 B latency_timer [31:0] $end
$var reg 32 C data_length [31:0] $end
$var integer 32 D Din [31:0] $end
$var integer 32 E golden [31:0] $end
$var integer 32 F input_data [31:0] $end
$var integer 32 G golden_data [31:0] $end
$var integer 32 H m [31:0] $end
$var integer 32 I i [31:0] $end
$var integer 32 J k [31:0] $end
$var reg 1 K error $end
$var reg 1 L error_coef $end
$var integer 32 M FIR_final_latency [31:0] $end
$var integer 32 N timeout [31:0] $end
$scope module fir_DUT $end
$var wire 1 ! awready $end
$var wire 1 " wready $end
$var wire 1 O awvalid $end
$var wire 12 P awaddr [11:0] $end
$var wire 1 Q wvalid $end
$var wire 32 R wdata [31:0] $end
$var wire 1 ' arready $end
$var wire 1 S rready $end
$var wire 1 T arvalid $end
$var wire 12 U araddr [11:0] $end
$var wire 1 + rvalid $end
$var wire 32 , rdata [31:0] $end
$var wire 1 V ss_tvalid $end
$var wire 32 W ss_tdata [31:0] $end
$var wire 1 X ss_tlast $end
$var wire 1 0 ss_tready $end
$var wire 1 Y sm_tready $end
$var wire 1 2 sm_tvalid $end
$var wire 32 3 sm_tdata [31:0] $end
$var wire 1 4 sm_tlast $end
$var wire 4 7 tap_WE [3:0] $end
$var wire 1 8 tap_EN $end
$var wire 32 9 tap_Di [31:0] $end
$var wire 12 : tap_A [11:0] $end
$var wire 32 ; tap_Do [31:0] $end
$var wire 4 < data_WE [3:0] $end
$var wire 1 = data_EN $end
$var wire 32 > data_Di [31:0] $end
$var wire 12 ? data_A [11:0] $end
$var wire 32 @ data_Do [31:0] $end
$var wire 1 Z axis_clk $end
$var wire 1 [ axis_rst_n $end
$var reg 1 \ awready_reg $end
$var reg 1 ] awready_before_FF $end
$var reg 1 ^ wready_reg $end
$var reg 1 _ wready_before_FF $end
$var reg 1 ` arready_reg $end
$var reg 1 a arready_before_FF $end
$var reg 1 b rvalid_reg $end
$var reg 32 c rdata_reg [31:0] $end
$var reg 1 d ss_tready_reg $end
$var reg 1 e ss_tready_before_FF $end
$var reg 1 f sm_tvalid_reg $end
$var reg 1 g sm_tvalid_before_FF $end
$var reg 32 h sm_tdata_reg [31:0] $end
$var reg 32 i sm_tdata_before_FF [31:0] $end
$var reg 1 j sm_tlast_reg $end
$var reg 1 k sm_tlast_before_FF $end
$var reg 4 l tap_WE_reg [3:0] $end
$var reg 4 m last_tap_WE [3:0] $end
$var reg 1 n tap_EN_reg $end
$var reg 32 o tap_Di_reg [31:0] $end
$var reg 32 p last_tap_Di [31:0] $end
$var reg 12 q tap_A_reg [11:0] $end
$var reg 12 r last_tap_A [11:0] $end
$var reg 4 s data_WE_reg [3:0] $end
$var reg 1 t data_EN_reg $end
$var reg 32 u data_Di_reg [31:0] $end
$var reg 12 v data_A_reg [11:0] $end
$var reg 12 w last_data_A [11:0] $end
$var reg 32 x tap_Do_reg [31:0] $end
$var reg 32 y data_Do_reg [31:0] $end
$var reg 4 z ap_idle_done_start [3:0] $end
$var reg 4 { next_ap_idle_done_start [3:0] $end
$var reg 32 | data_length [31:0] $end
$var reg 32 } next_data_length [31:0] $end
$var reg 3 ~ state [2:0] $end
$var reg 3 !! next_state [2:0] $end
$var reg 32 "! counter_data_number [31:0] $end
$var reg 32 #! next_counter_data_number [31:0] $end
$var reg 6 $! counter_BRAM [5:0] $end
$var reg 6 %! next_counter_BRAM [5:0] $end
$var wire 32 &! MAC_output [31:0] $end
$scope module U0_MAC $end
$var wire 32 '! in1 [31:0] $end
$var wire 32 (! in2 [31:0] $end
$var wire 32 )! sum_in [31:0] $end
$var wire 32 &! sum_out [31:0] $end
$var wire 64 *! product [63:0] $end
$upscope $end
$upscope $end
$scope module tap_RAM $end
$var wire 1 +! CLK $end
$var wire 4 7 WE [3:0] $end
$var wire 1 8 EN $end
$var wire 32 9 Di [31:0] $end
$var wire 32 ; Do [31:0] $end
$var wire 12 : A [11:0] $end
$var reg 12 ,! r_A [11:0] $end
$upscope $end
$scope module data_RAM $end
$var wire 1 -! CLK $end
$var wire 4 < WE [3:0] $end
$var wire 1 = EN $end
$var wire 32 > Di [31:0] $end
$var wire 32 @ Do [31:0] $end
$var wire 12 ? A [11:0] $end
$var reg 12 .! r_A [11:0] $end
$upscope $end
$scope task config_write $end
$var reg 12 /! addr [11:0] $end
$var reg 32 0! data [31:0] $end
$upscope $end
$scope task config_read_check $end
$var reg 12 1! addr [11:0] $end
$var reg 32 2! exp_data [31:0] $end
$var reg 32 3! mask [31:0] $end
$upscope $end
$scope task ss $end
$var reg 32 4! in1 [31:0] $end
$upscope $end
$scope task sm $end
$var reg 32 5! in2 [31:0] $end
$var reg 32 6! pcnt [31:0] $end
$upscope $end
$upscope $end
$enddefinitions $end
#0
$dumpvars
0!
b0 !!
0"
b0 "!
x#
b0 #!
bx $
b0 $!
x%
b0 %!
bx &
b0 &!
0'
b0 '!
x(
b0 (!
x)
b0 )!
bx *
b0 *!
x+
0+!
bx ,
bx ,!
1-
0-!
b1 .
bx .!
0/
bx /!
00
bx 0!
11
bx 1!
02
bx 2!
b0 3
bx 3!
04
b1 4!
05
bx 5!
06
bx 6!
b0 7
08
b0 9
b0 :
b0 ;
b0 <
0=
b0 >
b0 ?
b0 @
bx A
b0 B
b1001011000 C
b11111111111111111011000111100000 D
b11111111111111111011000111100001 E
b1 F
b1 G
b1001011000 H
b0 I
bx J
0K
0L
bx M
b11110100001001000000 N
xO
bx P
xQ
bx R
xS
xT
bx U
1V
b1 W
0X
1Y
0Z
0[
0\
0]
0^
0_
0`
0a
xb
bx c
0d
0e
0f
0g
b0 h
b0 i
0j
0k
b0 l
b0 m
0n
b0 o
b0 p
b0 q
b0 r
b0 s
0t
b0 u
b0 v
b0 w
b0 x
b0 y
b100 z
b100 {
b0 |
b0 }
b0 ~
$end
#5000
b0 "!
b0 $!
1+!
b0 ,!
1-!
b0 .!
15
b0 ;
b0 @
b11110100001000111111 N
1Z
0\
0^
0`
0d
0f
b0 h
0j
b0 m
b0 p
b0 r
b0 w
b100 z
b0 |
b0 ~
#10000
0+!
0-!
05
0Z
#15000
b1 !!
b0 "!
b0 #!
b0 $!
b0 %!
0)
0+
1+!
b0 ,
b0 ,!
1-!
b0 .!
b0 1!
b100 2!
b100 3!
15
16
b1 B
b11110100001000111110 N
0T
1Z
1[
0\
0^
0`
0b
b0 c
0d
0f
b0 h
b0 i
0j
b0 l
b0 m
b0 o
b0 p
b0 q
b0 r
b0 s
b0 u
b0 v
b0 w
b100 z
b100 {
b0 |
b0 }
b0 ~
#20000
0+!
0-!
05
0Z
#25000
b1 !!
b0 "!
b0 #!
b0 $!
b100 %!
bx &!
1(
bx (!
1)
b0 *
bx *!
1+!
b0 ,!
1-!
b0 .!
15
b1111 <
1=
bx @
b10 B
b11110100001000111101 N
1S
1T
b0 U
1Z
0\
0^
0`
b0 c
0d
0f
b0 h
b0 i
0j
b0 l
b0 m
b0 o
b0 p
b0 q
b0 r
b1111 s
1t
b0 u
b0 v
b0 w
b0 x
bx y
b100 z
b100 {
b0 |
b0 }
b1 ~
#30000
0+!
0-!
05
0Z
#35000
b1 !!
b0 "!
b0 #!
b100 $!
b1000 %!
b0 &!
b0 (!
b0 *!
1+!
b0 ,!
1-!
b0 .!
15
b100 ?
b0 @
b11 B
b11110100001000111100 N
1Z
0\
0^
0`
b0 c
0d
0f
b0 h
b0 i
0j
b0 l
b0 m
b0 o
b0 p
b0 q
b0 r
b1111 s
b0 u
b100 v
b0 w
b0 x
b0 y
b100 z
b100 {
b0 |
b0 }
b1 ~
#40000
0+!
0-!
05
0Z
#45000
b1 !!
b0 "!
b0 #!
b1000 $!
b1100 %!
1+!
b0 ,!
1-!
b100 .!
15
b1000 ?
b0 @
b100 B
b11110100001000111011 N
1Z
0\
0^
0`
b0 c
0d
0f
b0 h
b0 i
0j
b0 l
b0 m
b0 o
b0 p
b0 q
b0 r
b1111 s
b0 u
b1000 v
b100 w
b100 z
b100 {
b0 |
b0 }
b1 ~
#50000
0+!
0-!
05
0Z
#55000
b1 !!
b0 "!
b0 #!
b1100 $!
b10000 %!
1+!
b0 ,!
1-!
b1000 .!
15
b1100 ?
b0 @
b101 B
b11110100001000111010 N
1Z
0\
0^
0`
b0 c
0d
0f
b0 h
b0 i
0j
b0 l
b0 m
b0 o
b0 p
b0 q
b0 r
b1111 s
b0 u
b1100 v
b1000 w
b100 z
b100 {
b0 |
b0 }
b1 ~
#60000
0+!
0-!
05
0Z
#65000
b1 !!
b0 "!
b0 #!
b10000 $!
b10100 %!
1+!
b0 ,!
1-!
b1100 .!
15
b10000 ?
b0 @
b110 B
b11110100001000111001 N
1Z
0\
0^
0`
b0 c
0d
0f
b0 h
b0 i
0j
b0 l
b0 m
b0 o
b0 p
b0 q
b0 r
b1111 s
b0 u
b10000 v
b1100 w
b100 z
b100 {
b0 |
b0 }
b1 ~
#70000
0+!
0-!
05
0Z
#75000
b1 !!
b0 "!
b0 #!
b10100 $!
b11000 %!
1+!
b0 ,!
1-!
b10000 .!
15
b10100 ?
b0 @
b111 B
b11110100001000111000 N
1Z
0\
0^
0`
b0 c
0d
0f
b0 h
b0 i
0j
b0 l
b0 m
b0 o
b0 p
b0 q
b0 r
b1111 s
b0 u
b10100 v
b10000 w
b100 z
b100 {
b0 |
b0 }
b1 ~
#80000
0+!
0-!
05
0Z
#85000
b1 !!
b0 "!
b0 #!
b11000 $!
b11100 %!
1+!
b0 ,!
1-!
b10100 .!
15
b11000 ?
b0 @
b1000 B
b11110100001000110111 N
1Z
0\
0^
0`
b0 c
0d
0f
b0 h
b0 i
0j
b0 l
b0 m
b0 o
b0 p
b0 q
b0 r
b1111 s
b0 u
b11000 v
b10100 w
b100 z
b100 {
b0 |
b0 }
b1 ~
#90000
0+!
0-!
05
0Z
#95000
b1 !!
b0 "!
b0 #!
b11100 $!
b100000 %!
1+!
b0 ,!
1-!
b11000 .!
15
b11100 ?
b0 @
b1001 B
b11110100001000110110 N
1Z
0\
0^
0`
b0 c
0d
0f
b0 h
b0 i
0j
b0 l
b0 m
b0 o
b0 p
b0 q
b0 r
b1111 s
b0 u
b11100 v
b11000 w
b100 z
b100 {
b0 |
b0 }
b1 ~
#100000
0+!
0-!
05
0Z
#105000
b1 !!
b0 "!
b0 #!
b100000 $!
b100100 %!
1+!
b0 ,!
1-!
b11100 .!
15
b100000 ?
b0 @
b1010 B
b11110100001000110101 N
1Z
0\
0^
0`
b0 c
0d
0f
b0 h
b0 i
0j
b0 l
b0 m
b0 o
b0 p
b0 q
b0 r
b1111 s
b0 u
b100000 v
b11100 w
b100 z
b100 {
b0 |
b0 }
b1 ~
#110000
0+!
0-!
05
0Z
#115000
b1 !!
b0 "!
b0 #!
b100100 $!
b101000 %!
1+!
b0 ,!
1-!
b100000 .!
15
b100100 ?
b0 @
b1011 B
b11110100001000110100 N
1Z
0\
0^
0`
b0 c
0d
0f
b0 h
b0 i
0j
b0 l
b0 m
b0 o
b0 p
b0 q
b0 r
b1111 s
b0 u
b100100 v
b100000 w
b100 z
b100 {
b0 |
b0 }
b1 ~
#120000
0+!
0-!
05
0Z
#125000
b10 !!
b0 "!
b0 #!
b101000 $!
b0 %!
1+!
b0 ,!
1-!
b100100 .!
15
b101000 ?
b0 @
b1100 B
b11110100001000110011 N
1Z
0\
0^
0`
1a
b0 c
0d
0f
b0 h
b0 i
0j
b0 l
b0 m
b0 o
b0 p
b0 q
b0 r
b1111 s
b0 u
b101000 v
b100100 w
b100 z
b100 {
b0 |
b0 }
b1 ~
#130000
0+!
0-!
05
0Z
#135000
b10 !!
b0 "!
b0 #!
b0 $!
b0 %!
1'
1+
1+!
b100 ,
b0 ,!
1-!
b101000 .!
15
b0 <
0=
b0 ?
b0 @
b1101 B
b11110100001000110010 N
1Z
0\
0^
1`
0a
1b
b100 c
0d
0f
b0 h
b0 i
0j
b0 l
b0 m
b0 o
b0 p
b0 q
b0 r
b0 s
0t
b0 u
b0 v
b101000 w
b100 z
b100 {
b0 |
b0 }
b10 ~
#140000
0+!
0-!
05
0Z
#145000
b10 !!
b0 "!
0#
b0 #!
b0 $!
0%
b0 %!
0'
0+
1+!
b0 ,
b0 ,!
1-!
b0 .!
b10000 /!
b1001011000 0!
15
b0 @
b1110 B
b11110100001000110001 N
0O
0Q
1Z
0\
0^
0`
1a
0b
b0 c
0d
0f
b0 h
b0 i
0j
b0 l
b0 m
b0 o
b0 p
b0 q
b0 r
b0 s
b0 u
b0 v
b0 w
b100 z
b100 {
b0 |
b0 }
b10 ~
#150000
0+!
0-!
05
0Z
#155000
b10 !!
b0 "!
1#
b0 #!
b10000 $
b0 $!
1%
b0 %!
b1001011000 &
1'
1+!
b0 ,!
1-!
b0 .!
15
b1111 B
b11110100001000110000 N
1O
b10000 P
1Q
b1001011000 R
1Z
0\
1]
0^
1_
1`
0a
b0 c
0d
0f
b0 h
b0 i
0j
b0 l
b0 m
b0 o
b0 p
b0 q
b0 r
b0 s
b0 u
b0 v
b0 w
b100 z
b100 {
b0 |
b0 }
b10 ~
#160000
0+!
0-!
05
0Z
#165000
1!
b10 !!
1"
b0 "!
b0 #!
b0 $!
b0 %!
0'
1+!
b0 ,!
1-!
b0 .!
15
b10000 B
b11110100001000101111 N
1Z
1\
0]
1^
0_
0`
b0 c
0d
0f
b0 h
b0 i
0j
b0 l
b0 m
b0 o
b0 p
b0 q
b0 r
b0 s
b0 u
b0 v
b0 w
b100 z
b100 {
b0 |
b1001011000 }
b10 ~
#170000
0+!
0-!
05
0Z
#175000
0!
b10 !!
0"
b0 "!
0#
b0 #!
b0 $!
0%
b0 %!
1+!
b0 ,!
1-!
b0 .!
b100000 /!
b0 0!
15
b10001 B
b0 J
b11110100001000101110 N
0O
0Q
1Z
0\
0^
0`
1a
b0 c
0d
0f
b0 h
b0 i
0j
b0 l
b0 m
b0 o
b0 p
b0 q
b0 r
b0 s
b0 u
b0 v
b0 w
b100 z
b100 {
b1001011000 |
b1001011000 }
b10 ~
#180000
0+!
0-!
05
0Z
#185000
b10 !!
b0 "!
1#
b0 #!
b100000 $
b0 $!
1%
b0 %!
b0 &
1'
1+!
b0 ,!
1-!
b0 .!
15
b10010 B
b11110100001000101101 N
1O
b100000 P
1Q
b0 R
1Z
0\
1]
0^
1_
1`
0a
b0 c
0d
0f
b0 h
b0 i
0j
b0 l
b0 m
b0 o
b0 p
b0 q
b0 r
b0 s
b0 u
b0 v
b0 w
b100 z
b100 {
b1001011000 |
b1001011000 }
b10 ~
#190000
0+!
0-!
05
0Z
#195000
1!
b11 !!
1"
b0 "!
b0 #!
b0 $!
b0 %!
0'
1+!
b0 ,!
1-!
b0 .!
15
b1111 7
b10011 B
b11110100001000101100 N
1Z
1\
0]
1^
0_
0`
b0 c
0d
0f
b0 h
b0 i
0j
b1111 l
b0 m
b0 o
b0 p
b0 q
b0 r
b0 s
b0 u
b0 v
b0 w
b100 z
b100 {
b1001011000 |
b1001011000 }
b10 ~
#200000
0+!
0-!
05
0Z
#205000
0!
b10 !!
0"
b0 "!
0#
b0 #!
b0 $!
0%
b0 %!
bx &!
bx '!
bx *!
1+!
b0 ,!
1-!
b0 .!
b100100 /!
b11111111111111111111111111110110 0!
15
18
bx ;
b10100 B
b1 J
b11110100001000101011 N
0O
0Q
1Z
0\
0^
0`
1a
b0 c
0d
0f
b0 h
b0 i
0j
b1111 l
b1111 m
1n
b0 o
b0 p
b0 q
b0 r
b0 s
b0 u
b0 v
b0 w
bx x
b0 y
b100 z
b100 {
b1001011000 |
b1001011000 }
b11 ~
#210000
0+!
0-!
05
0Z
#215000
b10 !!
b0 "!
1#
b0 #!
b100100 $
b0 $!
1%
b0 %!
b11111111111111111111111111110110 &
b0 &!
1'
b0 '!
b0 *!
1+!
b0 ,!
1-!
b0 .!
15
b0 7
08
b0 ;
b10101 B
b11110100001000101010 N
1O
b100100 P
1Q
b11111111111111111111111111110110 R
1Z
0\
1]
0^
1_
1`
0a
b0 c
0d
0f
b0 h
b0 i
0j
b0 l
b1111 m
0n
b0 o
b0 p
b0 q
b0 r
b0 s
b0 u
b0 v
b0 w
b0 x
b0 y
b100 z
b100 {
b1001011000 |
b1001011000 }
b10 ~
#220000
0+!
0-!
05
0Z
#225000
1!
b11 !!
1"
b0 "!
b0 #!
b0 $!
b0 %!
0'
1+!
b0 ,!
1-!
b0 .!
15
b1111 7
b11111111111111111111111111110110 9
b100 :
b10110 B
b11110100001000101001 N
1Z
1\
0]
1^
0_
0`
b0 c
0d
0f
b0 h
b0 i
0j
b1111 l
b0 m
b11111111111111111111111111110110 o
b0 p
b100 q
b0 r
b0 s
b0 u
b0 v
b0 w
b100 z
b100 {
b1001011000 |
b1001011000 }
b10 ~
#230000
0+!
0-!
05
0Z
#235000
0!
b10 !!
0"
b0 "!
0#
b0 #!
b0 $!
0%
b0 %!
bx &!
bx '!
bx *!
1+!
b100 ,!
1-!
b0 .!
b101000 /!
b11111111111111111111111111110111 0!
15
18
bx ;
b10111 B
b10 J
b11110100001000101000 N
0O
0Q
1Z
0\
0^
0`
1a
b0 c
0d
0f
b0 h
b0 i
0j
b1111 l
b1111 m
1n
b11111111111111111111111111110110 o
b11111111111111111111111111110110 p
b100 q
b100 r
b0 s
b0 u
b0 v
b0 w
bx x
b0 y
b100 z
b100 {
b1001011000 |
b1001011000 }
b11 ~
#240000
0+!
0-!
05
0Z
#245000
b10 !!
b0 "!
1#
b0 #!
b101000 $
b0 $!
1%
b0 %!
b11111111111111111111111111110111 &
b0 &!
1'
b0 '!
b0 *!
1+!
b100 ,!
1-!
b0 .!
15
b0 7
08
b0 9
b0 :
b0 ;
b11000 B
b11110100001000100111 N
1O
b101000 P
1Q
b11111111111111111111111111110111 R
1Z
0\
1]
0^
1_
1`
0a
b0 c
0d
0f
b0 h
b0 i
0j
b0 l
b1111 m
0n
b0 o
b11111111111111111111111111110110 p
b0 q
b100 r
b0 s
b0 u
b0 v
b0 w
b0 x
b0 y
b100 z
b100 {
b1001011000 |
b1001011000 }
b10 ~
#250000
0+!
0-!
05
0Z
#255000
1!
b11 !!
1"
b0 "!
b0 #!
b0 $!
b0 %!
0'
1+!
b0 ,!
1-!
b0 .!
15
b1111 7
b11111111111111111111111111110111 9
b1000 :
b0 ;
b11001 B
b11110100001000100110 N
1Z
1\
0]
1^
0_
0`
b0 c
0d
0f
b0 h
b0 i
0j
b1111 l
b0 m
b11111111111111111111111111110111 o
b0 p
b1000 q
b0 r
b0 s
b0 u
b0 v
b0 w
b100 z
b100 {
b1001011000 |
b1001011000 }
b10 ~
#260000
0+!
0-!
05
0Z
#265000
0!
b10 !!
0"
b0 "!
0#
b0 #!
b0 $!
0%
b0 %!
bx &!
bx '!
bx *!
1+!
b1000 ,!
1-!
b0 .!
b101100 /!
b10111 0!
15
18
bx ;
b11010 B
b11 J
b11110100001000100101 N
0O
0Q
1Z
0\
0^
0`
1a
b0 c
0d
0f
b0 h
b0 i
0j
b1111 l
b1111 m
1n
b11111111111111111111111111110111 o
b11111111111111111111111111110111 p
b1000 q
b1000 r
b0 s
b0 u
b0 v
b0 w
bx x
b0 y
b100 z
b100 {
b1001011000 |
b1001011000 }
b11 ~
#270000
0+!
0-!
05
0Z
#275000
b10 !!
b0 "!
1#
b0 #!
b101100 $
b0 $!
1%
b0 %!
b10111 &
b0 &!
1'
b0 '!
b0 *!
1+!
b1000 ,!
1-!
b0 .!
15
b0 7
08
b0 9
b0 :
b0 ;
b11011 B
b11110100001000100100 N
1O
b101100 P
1Q
b10111 R
1Z
0\
1]
0^
1_
1`
0a
b0 c
0d
0f
b0 h
b0 i
0j
b0 l
b1111 m
0n
b0 o
b11111111111111111111111111110111 p
b0 q
b1000 r
b0 s
b0 u
b0 v
b0 w
b0 x
b0 y
b100 z
b100 {
b1001011000 |
b1001011000 }
b10 ~
#280000
0+!
0-!
05
0Z
#285000
1!
b11 !!
1"
b0 "!
b0 #!
b0 $!
b0 %!
0'
1+!
b0 ,!
1-!
b0 .!
15
b1111 7
b10111 9
b1100 :
b0 ;
b11100 B
b11110100001000100011 N
1Z
1\
0]
1^
0_
0`
b0 c
0d
0f
b0 h
b0 i
0j
b1111 l
b0 m
b10111 o
b0 p
b1100 q
b0 r
b0 s
b0 u
b0 v
b0 w
b100 z
b100 {
b1001011000 |
b1001011000 }
b10 ~
#290000
0+!
0-!
05
0Z
#295000
0!
b10 !!
0"
b0 "!
0#
b0 #!
b0 $!
0%
b0 %!
bx &!
bx '!
bx *!
1+!
b1100 ,!
1-!
b0 .!
b110000 /!
b111000 0!
15
18
bx ;
b11101 B
b100 J
b11110100001000100010 N
0O
0Q
1Z
0\
0^
0`
1a
b0 c
0d
0f
b0 h
b0 i
0j
b1111 l
b1111 m
1n
b10111 o
b10111 p
b1100 q
b1100 r
b0 s
b0 u
b0 v
b0 w
bx x
b0 y
b100 z
b100 {
b1001011000 |
b1001011000 }
b11 ~
#300000
0+!
0-!
05
0Z
#305000
b10 !!
b0 "!
1#
b0 #!
b110000 $
b0 $!
1%
b0 %!
b111000 &
b0 &!
1'
b0 '!
b0 *!
1+!
b1100 ,!
1-!
b0 .!
15
b0 7
08
b0 9
b0 :
b0 ;
b11110 B
b11110100001000100001 N
1O
b110000 P
1Q
b111000 R
1Z
0\
1]
0^
1_
1`
0a
b0 c
0d
0f
b0 h
b0 i
0j
b0 l
b1111 m
0n
b0 o
b10111 p
b0 q
b1100 r
b0 s
b0 u
b0 v
b0 w
b0 x
b0 y
b100 z
b100 {
b1001011000 |
b1001011000 }
b10 ~
#310000
0+!
0-!
05
0Z
#315000
1!
b11 !!
1"
b0 "!
b0 #!
b0 $!
b0 %!
0'
1+!
b0 ,!
1-!
b0 .!
15
b1111 7
b111000 9
b10000 :
b0 ;
b11111 B
b11110100001000100000 N
1Z
1\
0]
1^
0_
0`
b0 c
0d
0f
b0 h
b0 i
0j
b1111 l
b0 m
b111000 o
b0 p
b10000 q
b0 r
b0 s
b0 u
b0 v
b0 w
b100 z
b100 {
b1001011000 |
b1001011000 }
b10 ~
#320000
0+!
0-!
05
0Z
#325000
0!
b10 !!
0"
b0 "!
0#
b0 #!
b0 $!
0%
b0 %!
bx &!
bx '!
bx *!
1+!
b10000 ,!
1-!
b0 .!
b110100 /!
b111111 0!
15
18
bx ;
b100000 B
b101 J
b11110100001000011111 N
0O
0Q
1Z
0\
0^
0`
1a
b0 c
0d
0f
b0 h
b0 i
0j
b1111 l
b1111 m
1n
b111000 o
b111000 p
b10000 q
b10000 r
b0 s
b0 u
b0 v
b0 w
bx x
b0 y
b100 z
b100 {
b1001011000 |
b1001011000 }
b11 ~
#330000
0+!
0-!
05
0Z
#335000
b10 !!
b0 "!
1#
b0 #!
b110100 $
b0 $!
1%
b0 %!
b111111 &
b0 &!
1'
b0 '!
b0 *!
1+!
b10000 ,!
1-!
b0 .!
15
b0 7
08
b0 9
b0 :
b0 ;
b100001 B
b11110100001000011110 N
1O
b110100 P
1Q
b111111 R
1Z
0\
1]
0^
1_
1`
0a
b0 c
0d
0f
b0 h
b0 i
0j
b0 l
b1111 m
0n
b0 o
b111000 p
b0 q
b10000 r
b0 s
b0 u
b0 v
b0 w
b0 x
b0 y
b100 z
b100 {
b1001011000 |
b1001011000 }
b10 ~
#340000
0+!
0-!
05
0Z
#345000
1!
b11 !!
1"
b0 "!
b0 #!
b0 $!
b0 %!
0'
1+!
b0 ,!
1-!
b0 .!
15
b1111 7
b111111 9
b10100 :
b0 ;
b100010 B
b11110100001000011101 N
1Z
1\
0]
1^
0_
0`
b0 c
0d
0f
b0 h
b0 i
0j
b1111 l
b0 m
b111111 o
b0 p
b10100 q
b0 r
b0 s
b0 u
b0 v
b0 w
b100 z
b100 {
b1001011000 |
b1001011000 }
b10 ~
#350000
0+!
0-!
05
0Z
#355000
0!
b10 !!
0"
b0 "!
0#
b0 #!
b0 $!
0%
b0 %!
bx &!
bx '!
bx *!
1+!
b10100 ,!
1-!
b0 .!
b111000 /!
b111000 0!
15
18
bx ;
b100011 B
b110 J
b11110100001000011100 N
0O
0Q
1Z
0\
0^
0`
1a
b0 c
0d
0f
b0 h
b0 i
0j
b1111 l
b1111 m
1n
b111111 o
b111111 p
b10100 q
b10100 r
b0 s
b0 u
b0 v
b0 w
bx x
b0 y
b100 z
b100 {
b1001011000 |
b1001011000 }
b11 ~
#360000
0+!
0-!
05
0Z
#365000
b10 !!
b0 "!
1#
b0 #!
b111000 $
b0 $!
1%
b0 %!
b111000 &
b0 &!
1'
b0 '!
b0 *!
1+!
b10100 ,!
1-!
b0 .!
15
b0 7
08
b0 9
b0 :
b0 ;
b100100 B
b11110100001000011011 N
1O
b111000 P
1Q
b111000 R
1Z
0\
1]
0^
1_
1`
0a
b0 c
0d
0f
b0 h
b0 i
0j
b0 l
b1111 m
0n
b0 o
b111111 p
b0 q
b10100 r
b0 s
b0 u
b0 v
b0 w
b0 x
b0 y
b100 z
b100 {
b1001011000 |
b1001011000 }
b10 ~
#370000
0+!
0-!
05
0Z
#375000
1!
b11 !!
1"
b0 "!
b0 #!
b0 $!
b0 %!
0'
1+!
b0 ,!
1-!
b0 .!
15
b1111 7
b111000 9
b11000 :
b0 ;
b100101 B
b11110100001000011010 N
1Z
1\
0]
1^
0_
0`
b0 c
0d
0f
b0 h
b0 i
0j
b1111 l
b0 m
b111000 o
b0 p
b11000 q
b0 r
b0 s
b0 u
b0 v
b0 w
b100 z
b100 {
b1001011000 |
b1001011000 }
b10 ~
#380000
0+!
0-!
05
0Z
#385000
0!
b10 !!
0"
b0 "!
0#
b0 #!
b0 $!
0%
b0 %!
bx &!
bx '!
bx *!
1+!
b11000 ,!
1-!
b0 .!
b111100 /!
b10111 0!
15
18
bx ;
b100110 B
b111 J
b11110100001000011001 N
0O
0Q
1Z
0\
0^
0`
1a
b0 c
0d
0f
b0 h
b0 i
0j
b1111 l
b1111 m
1n
b111000 o
b111000 p
b11000 q
b11000 r
b0 s
b0 u
b0 v
b0 w
bx x
b0 y
b100 z
b100 {
b1001011000 |
b1001011000 }
b11 ~
#390000
0+!
0-!
05
0Z
#395000
b10 !!
b0 "!
1#
b0 #!
b111100 $
b0 $!
1%
b0 %!
b10111 &
b0 &!
1'
b0 '!
b0 *!
1+!
b11000 ,!
1-!
b0 .!
15
b0 7
08
b0 9
b0 :
b0 ;
b100111 B
b11110100001000011000 N
1O
b111100 P
1Q
b10111 R
1Z
0\
1]
0^
1_
1`
0a
b0 c
0d
0f
b0 h
b0 i
0j
b0 l
b1111 m
0n
b0 o
b111000 p
b0 q
b11000 r
b0 s
b0 u
b0 v
b0 w
b0 x
b0 y
b100 z
b100 {
b1001011000 |
b1001011000 }
b10 ~
#400000
0+!
0-!
05
0Z
#405000
1!
b11 !!
1"
b0 "!
b0 #!
b0 $!
b0 %!
0'
1+!
b0 ,!
1-!
b0 .!
15
b1111 7
b10111 9
b11100 :
b0 ;
b101000 B
b11110100001000010111 N
1Z
1\
0]
1^
0_
0`
b0 c
0d
0f
b0 h
b0 i
0j
b1111 l
b0 m
b10111 o
b0 p
b11100 q
b0 r
b0 s
b0 u
b0 v
b0 w
b100 z
b100 {
b1001011000 |
b1001011000 }
b10 ~
#410000
0+!
0-!
05
0Z
#415000
0!
b10 !!
0"
b0 "!
0#
b0 #!
b0 $!
0%
b0 %!
bx &!
bx '!
bx *!
1+!
b11100 ,!
1-!
b0 .!
b1000000 /!
b11111111111111111111111111110111 0!
15
18
bx ;
b101001 B
b1000 J
b11110100001000010110 N
0O
0Q
1Z
0\
0^
0`
1a
b0 c
0d
0f
b0 h
b0 i
0j
b1111 l
b1111 m
1n
b10111 o
b10111 p
b11100 q
b11100 r
b0 s
b0 u
b0 v
b0 w
bx x
b0 y
b100 z
b100 {
b1001011000 |
b1001011000 }
b11 ~
#420000
0+!
0-!
05
0Z
