final_project/yuhungwei/output.vcd
$date
	Sun Jan 14 09:34:22 2024
$end
$version
	Icarus Verilog
$end
$timescale
	1ps
$end
$scope module TESTBED $end
$var wire 1 ! ss_tready $end
$var wire 1 " ss_tvalid $end
$var wire 32 # ss_tdata [31:0] $end
$var wire 1 $ sm_tvalid $end
$var wire 1 % sm_tready $end
$var wire 32 & sm_tdata [31:0] $end
$var wire 1 ' mm_start $end
$var wire 1 ( mm_idle $end
$var wire 1 ) mm_done $end
$var wire 1 * axis_rst_n $end
$var wire 1 + axis_clk $end
$scope module U_PATTERN $end
$var wire 1 ! ss_tready $end
$var wire 1 $ sm_tvalid $end
$var wire 32 , sm_tdata [31:0] $end
$var wire 1 ' mm_start $end
$var wire 1 ( mm_idle $end
$var wire 1 ) mm_done $end
$var reg 1 + axis_clk $end
$var reg 1 * axis_rst_n $end
$var reg 1 % sm_tready $end
$var reg 32 - ss_tdata [31:0] $end
$var reg 1 " ss_tvalid $end
$scope task fail_task $end
$upscope $end
$scope task input_task_A $end
$var reg 32 . in1 [31:0] $end
$upscope $end
$scope task input_task_B $end
$var reg 32 / in1 [31:0] $end
$upscope $end
$scope task main_task $end
$upscope $end
$scope task pass_task $end
$upscope $end
$scope task reset_task $end
$upscope $end
$upscope $end
$scope module U_mm $end
$var wire 1 + axis_clk $end
$var wire 1 * axis_rst_n $end
$var wire 1 % sm_tready $end
$var wire 1 $ sm_tvalid $end
$var wire 32 0 ss_tdata [31:0] $end
$var wire 1 ! ss_tready $end
$var wire 1 " ss_tvalid $end
$var wire 32 1 sm_tdata [31:0] $end
$var wire 1 2 output_flag $end
$var wire 1 ' mm_start $end
$var wire 1 ( mm_idle $end
$var wire 1 ) mm_done $end
$var wire 32 3 mac4 [31:0] $end
$var wire 32 4 mac3 [31:0] $end
$var wire 32 5 mac2 [31:0] $end
$var wire 32 6 mac1 [31:0] $end
$var wire 1 7 input_B_flag $end
$var wire 1 8 input_A_flag $end
$var reg 32 9 A1 [31:0] $end
$var reg 32 : A2 [31:0] $end
$var reg 32 ; A3 [31:0] $end
$var reg 32 < A4 [31:0] $end
$var reg 32 = B11 [31:0] $end
$var reg 32 > B12 [31:0] $end
$var reg 32 ? B13 [31:0] $end
$var reg 32 @ B14 [31:0] $end
$var reg 32 A B21 [31:0] $end
$var reg 32 B B22 [31:0] $end
$var reg 32 C B23 [31:0] $end
$var reg 32 D B24 [31:0] $end
$var reg 32 E B31 [31:0] $end
$var reg 32 F B32 [31:0] $end
$var reg 32 G B33 [31:0] $end
$var reg 32 H B34 [31:0] $end
$var reg 32 I B41 [31:0] $end
$var reg 32 J B42 [31:0] $end
$var reg 32 K B43 [31:0] $end
$var reg 32 L B44 [31:0] $end
$var reg 3 M c_state [2:0] $end
$var reg 3 N cnt_A_input [2:0] $end
$var reg 5 O cnt_B_input [4:0] $end
$var reg 5 P cnt_output [4:0] $end
$var reg 3 Q n_state [2:0] $end
$upscope $end
$upscope $end
$enddefinitions $end
#0
$dumpvars
b0 Q
bx P
bx O
bx N
bx M
bx L
bx K
bx J
bx I
bx H
bx G
bx F
bx E
bx D
bx C
bx B
bx A
bx @
bx ?
bx >
bx =
bx <
bx ;
bx :
bx 9
x8
x7
bx 6
bx 5
bx 4
bx 3
x2
bx 1
bx 0
bx /
bx .
bx -
bx ,
0+
1*
0)
0(
0'
bx &
0%
x$
bx #
0"
1!
$end
#800
0$
02
07
b0 &
b0 ,
b0 1
08
b1 Q
b0 6
b0 5
b0 4
b0 3
b0 M
b0 N
b0 O
b0 P
b0 9
b0 :
b0 ;
b0 <
b0 =
b0 A
b0 E
b0 I
b0 >
b0 B
b0 F
b0 J
b0 ?
b0 C
b0 G
b0 K
b0 @
b0 D
b0 H
b0 L
0*
1+
#1600
b11 Q
1'
b0 #
b0 -
b0 0
1"
b0 .
1%
1*
0+
#2400
b1 #
b1 -
b1 0
b1 N
b11 M
b1 .
1+
#3200
0+
#4000
b10 #
b10 -
b10 0
b10 N
b1 :
b10 .
1+
#4800
0+
#5600
b11 #
b11 -
b11 0
b10 ;
b11 N
b11 .
1+
#6400
0+
#7200
18
b1 #
b1 -
b1 0
b100 N
b11 <
b1 /
1+
#8000
0+
#8800
b101 #
b101 -
b101 0
b1 =
b1 O
b101 /
1+
#9600
0+
#10400
b1001 #
b1001 -
b1001 0
b10 O
b101 A
b1001 /
1+
#11200
0+
#12000
b1101 #
b1101 -
b1101 0
b1001 E
b11 O
b1101 /
1+
#12800
0+
#13600
b111110 &
b111110 ,
b111110 1
1)
b111110 6
1$
12
17
b10 #
b10 -
b10 0
b100 O
b1101 I
b10 /
1+
#14400
0+
#15200
0)
b0 6
0$
02
07
08
b0 &
b0 ,
b0 1
b110 #
b110 -
b110 0
b10 >
b1 P
b0 O
b0 N
b110 /
1+
#16000
0+
#16800
b1010 #
b1010 -
b1010 0
b1 N
b110 9
b1010 /
1+
#17600
0+
#18400
b1110 #
b1110 -
b1110 0
b1010 :
b10 N
b1110 /
1+
#19200
0+
#20000
b11 #
b11 -
b11 0
b11 N
b1110 ;
b11 /
1+
#20800
0+
#21600
18
b111 #
b111 -
b111 0
b100 N
b111 /
1+
#22400
0+
#23200
b1011 #
b1011 -
b1011 0
b1 O
b111 =
b1011 /
1+
#24000
0+
#24800
b1111 #
b1111 -
b1111 0
b1011 A
b10 O
b1111 /
1+
#25600
0+
#26400
b100 #
b100 -
b100 0
b11 O
b1111 E
b100 /
1+
#27200
0+
#28000
b1100 &
b1100 ,
b1100 1
1)
b101110110 6
b1100 5
1$
12
17
b1000 #
b1000 -
b1000 0
b100 I
b100 O
b1000 /
1+
#28800
0+
#29600
0)
b0 6
0$
02
07
08
b0 &
b0 ,
b0 1
b0 5
b1100 #
b1100 -
b1100 0
b0 N
b0 O
b10 P
b1000 >
b1100 /
1+
#30400
0+
#31200
b10000 #
b10000 -
b10000 0
b1100 9
b1 N
b10000 /
1+
#32000
0+
#32800
b0 #
b0 -
b0 0
b10 N
b10000 :
b0 .
1+
#33600
0+
#34400
b1 #
b1 -
b1 0
b0 ;
b11 N
b1 .
1+
#35200
0+
#36000
18
b10 #
b10 -
b10 0
b100 N
b1 <
b10 .
1+
#36800
0+
#37600
b11 #
b11 -
b11 0
b10 =
b1 O
b11 .
1+
#38400
0+
#39200
b0 #
b0 -
b0 0
b10 O
b11 A
b0 .
1+
#40000
0+
#40800
b1 #
b1 -
b1 0
b0 E
b11 O
b1 .
1+
#41600
0+
#42400
1)
b1001001 6
b1100000 5
1$
12
17
b10 #
b10 -
b10 0
b100 O
b1 I
b10 .
1+
#43200
0+
#44000
0)
b0 6
0$
02
07
08
b0 5
b11 #
b11 -
b11 0
b10 >
b11 P
b0 O
b0 N
b11 .
1+
#44800
0+
#45600
b0 #
b0 -
b0 0
b1 N
b11 9
b0 .
1+
#46400
0+
#47200
b1 #
b1 -
b1 0
b0 :
b10 N
b1 .
1+
#48000
0+
#48800
b10 #
b10 -
b10 0
b11 N
b1 ;
b10 .
1+
#49600
0+
#50400
18
b11 #
b11 -
b11 0
b10 <
b100 N
b11 .
1+
#51200
0+
#52000
b1 O
b11 =
1+
#52800
0+
#53600
b10 O
1+
#54400
0+
#55200
b11 O
b11 E
1+
#56000
0+
#56800
1)
b10010 6
b110 5
1$
12
17
b11 I
b100 O
1+
#57600
0+
#58400
0)
b0 6
0$
02
07
08
b0 &
b0 ,
b0 1
b0 5
b0 N
b0 O
b100 P
b11 >
1+
#59200
0+
#60000
b1 N
1+
#60800
0+
#61600
b10 N
b11 :
1+
#62400
0+
#63200
b11 ;
b11 N
1+
#64000
0+
#64800
18
b100 N
b11 <
1+
#65600
0+
#66400
b1 O
1+
#67200
0+
#68000
b10 O
1+
#68800
0+
#69600
b11 O
1+
#70400
0+
#71200
b100100 &
b100100 ,
b100100 1
1)
b100100 6
b1001 5
1$
12
17
b100 O
1+
#72000
0+
#72800
0)
b0 6
b0 5
0$
02
07
08
b0 &
b0 ,
b0 1
b101 P
b0 O
b0 N
1+
#73600
0+
#74400
b1 N
1+
#75200
0+
#76000
b10 N
1+
#76800
0+
#77600
b11 N
1+
#78400
0+
#79200
18
b100 N
1+
#80000
0+
#80800
b1 O
1+
#81600
0+
#82400
b10 O
1+
#83200
0+
#84000
b11 O
1+
#84800
0+
#85600
b1001 &
b1001 ,
b1001 1
1)
b100100 6
b1001 5
1$
12
17
b100 O
1+
#86400
0+
#87200
0)
b0 6
b0 5
0$
02
07
08
b0 &
b0 ,
b0 1
b0 N
b0 O
b110 P
1+
#88000
0+
#88800
b1 N
1+
#89600
0+
#90400
b10 N
1+
#91200
0+
#92000
b11 N
1+
#92800
0+
#93600
18
b100 N
1+
#94400
0+
#95200
b1 O
1+
#96000
0+
#96800
b10 O
1+
#97600
0+
#98400
b11 O
1+
#99200
0+
#100000
1)
b100100 6
b1001 5
1$
12
17
b100 O
1+
#100800
0+
#101600
0)
b0 6
b0 5
0$
02
07
08
b111 P
b0 O
b0 N
1+
#102400
0+
#103200
b1 N
1+
#104000
0+
#104800
b10 N
1+
#105600
0+
#106400
b11 N
1+
#107200
0+
#108000
18
b100 N
1+
#108800
0+
#109600
b1 O
1+
#110400
0+
#111200
b10 O
1+
#112000
0+
#112800
b11 O
1+
#113600
0+
#114400
1)
b100100 6
b1001 5
1$
12
17
b100 O
1+
#115200
0+
#116000
0)
b0 6
b0 5
0$
02
07
08
b0 &
b0 ,
b0 1
b0 N
b0 O
b1000 P
1+
#116800
0+
#117600
b1 N
1+
#118400
0+
#119200
b10 N
1+
#120000
0+
#120800
b11 N
1+
#121600
0+
#122400
18
b100 N
1+
#123200
0+
#124000
b1 O
1+
#124800
0+
#125600
b10 O
1+
#126400
0+
#127200
b11 O
1+
#128000
0+
#128800
b100100 &
b100100 ,
b100100 1
1)
b100100 6
b1001 5
1$
12
17
b100 O
1+
#129600
0+
#130400
0)
b0 6
b0 5
0$
02
07
08
b0 &
b0 ,
b0 1
b1001 P
b0 O
b0 N
1+
#131200
0+
#132000
b1 N
1+
#132800
0+
#133600
b10 N
1+
#134400
0+
#135200
b11 N
1+
#136000
0+
#136800
18
b100 N
1+
#137600
0+
#138400
b1 O
1+
#139200
0+
#140000
b10 O
1+
#140800
0+
#141600
b11 O
1+
#142400
0+
#143200
b1001 &
b1001 ,
b1001 1
1)
b100100 6
b1001 5
1$
12
17
b100 O
1+
#144000
0+
#144800
0)
b0 6
b0 5
0$
02
07
08
b0 &
b0 ,
b0 1
b0 N
b0 O
b1010 P
1+
#145600
0+
#146400
b1 N
1+
#147200
0+
#148000
b10 N
1+
#148800
0+
#149600
b11 N
1+
#150400
0+
#151200
18
b100 N
1+
#152000
0+
#152800
b1 O
1+
#153600
0+
#154400
b10 O
1+
#155200
0+
#156000
b11 O
1+
#156800
0+
#157600
1)
b100100 6
b1001 5
1$
12
17
b100 O
1+
#158400
0+
#159200
0)
b0 6
b0 5
0$
02
07
08
b1011 P
b0 O
b0 N
1+
#160000
0+
#160800
b1 N
1+
#161600
0+
#162400
b10 N
1+
#163200
0+
#164000
b11 N
1+
#164800
0+
#165600
18
b100 N
1+
#166400
0+
#167200
b1 O
1+
#168000
0+
#168800
b10 O
1+
#169600
0+
#170400
b11 O
1+
#171200
0+
#172000
1)
b100100 6
b1001 5
1$
12
17
b100 O
1+
#172800
0+
#173600
0)
b0 6
b0 5
0$
02
07
08
b0 &
b0 ,
b0 1
b0 N
b0 O
b1100 P
1+
#174400
0+
#175200
b1 N
1+
#176000
0+
#176800
b10 N
1+
#177600
0+
#178400
b11 N
1+
#179200
0+
#180000
18
b100 N
1+
#180800
0+
#181600
b1 O
1+
#182400
0+
#183200
b10 O
1+
#184000
0+
#184800
b11 O
1+
#185600
0+
#186400
b100100 &
b100100 ,
b100100 1
1)
b100100 6
b1001 5
1$
12
17
b100 O
1+
#187200
0+
#188000
0)
b0 6
b0 5
0$
02
07
08
b0 &
b0 ,
b0 1
b1101 P
b0 O
b0 N
1+
#188800
0+
#189600
b1 N
1+
#190400
0+
#191200
b10 N
1+
#192000
0+
#192800
b11 N
1+
#193600
0+
#194400
18
b100 N
1+
#195200
0+
#196000
b1 O
1+
#196800
0+
#197600
b10 O
1+
#198400
0+
#199200
b11 O
1+
#200000
0+
#200800
b1001 &
b1001 ,
b1001 1
1)
b100100 6
b1001 5
1$
12
17
b100 O
1+
#201600
0+
#202400
0)
b0 6
b0 5
0$
02
07
08
b0 &
b0 ,
b0 1
b0 N
b0 O
b1110 P
1+
#203200
0+
#204000
b1 N
1+
#204800
0+
#205600
b10 N
1+
#206400
0+
#207200
b11 N
1+
#208000
0+
#208800
18
b100 N
1+
#209600
0+
#210400
b1 O
1+
#211200
0+
#212000
b10 O
1+
#212800
0+
#213600
b11 O
1+
#214400
0+
#215200
1)
b100100 6
b1001 5
1$
12
17
b100 O
1+
#216000
0+
#216800
0)
b0 6
b0 5
0$
02
07
0(
08
b1111 P
b0 O
b0 N
1+
#217600
0+
#218400
b1 N
1+
#219200
0+
#220000
b10 N
1+
#220800
0+
#221600
b11 N
1+
#222400
0+
#223200
18
b100 N
1+
#224000
0+
#224800
b1 O
1+
#225600
0+
#226400
b10 O
1+
#227200
0+
#228000
b11 O
1+
#228800
0+
#229600
1(
1)
b100100 6
b1001 5
1$
12
17
b100 O
1+
#230400
0+
#231200
0)
b0 6
b0 5
0$
02
07
08
0(
b0 &
b0 ,
b0 1
b0 N
b0 O
b0 P
1+
#232000
0+
#232800
b1 N
1+
#233600
0+
#234400
b10 N
1+
#235200
0+
#236000
b11 N
1+
#236800
0+
#237600
18
b100 N
1+
#238400
0+
#239200
b1 O
1+
#240000
0+
#240800
b10 O
1+
#241600
0+
#242400
b11 O
1+
#243200
0+
#244000
b100100 &
b100100 ,
b100100 1
1)
b100100 6
b1001 5
1$
12
17
b100 O
1+
#244800
0+
#245600
0)
b0 6
b0 5
0$
02
07
08
b0 &
b0 ,
b0 1
b1 P
b0 O
b0 N
1+
#246400
0+
#247200
b1 N
1+
#248000
0+
#248800
b10 N
1+
#249600
0+
#250400
b11 N
1+
#251200
0+
#252000
18
b100 N
1+
#252800
0+
#253600
b1 O
1+
#254400
0+
#255200
b10 O
1+
#256000
0+
#256800
b11 O
1+
#257600
0+
#258400
b1001 &
b1001 ,
b1001 1
1)
b100100 6
b1001 5
1$
12
17
b100 O
1+
#259200
0+
#260000
0)
b0 6
b0 5
0$
02
07
08
b0 &
b0 ,
b0 1
b0 N
b0 O
b10 P
1+
#260800
0+
#261600
b1 N
1+
#262400
0+
#263200
b10 N
1+
#264000
0+
#264800
b11 N
1+
#265600
0+
#266400
18
b100 N
1+
#267200
0+
#268000
b1 O
1+
#268800
0+
#269600
b10 O
1+
#270400
0+
#271200
b11 O
1+
#272000
0+
#272800
1)
b100100 6
b1001 5
1$
12
17
b100 O
1+
#273600
0+
#274400
0)
b0 6
b0 5
0$
02
07
08
b11 P
b0 O
b0 N
1+
#275200
0+
#276000
b1 N
1+
#276800
0+
#277600
b10 N
1+
#278400
0+
#279200
b11 N
1+
#280000
0+
#280800
18
b100 N
1+
#281600
0+
#282400
b1 O
1+
#283200
0+
#284000
b10 O
1+
#284800
0+
#285600
b11 O
1+
#286400
0+
#287200
1)
b100100 6
b1001 5
1$
12
17
b100 O
1+
#288000
0+
#288800
0)
b0 6
b0 5
0$
02
07
08
b0 &
b0 ,
b0 1
b0 N
b0 O
b100 P
1+
#289600
0+
#290400
b1 N
1+
#291200
0+
#292000
b10 N
1+
#292800
0+
#293600
b11 N
1+
#294400
0+
#295200
18
b100 N
1+
#296000
0+
#296800
b1 O
1+
#297600
0+
#298400
b10 O
1+
#299200
0+
#300000
b11 O
1+
#300800
0+
#301600
b100100 &
b100100 ,
b100100 1
1)
b100100 6
b1001 5
1$
12
17
b100 O
1+
#302400
0+
#303200
0)
b0 6
b0 5
0$
02
07
08
b0 &
b0 ,
b0 1
b101 P
b0 O
b0 N
1+
#304000
0+
#304800
b1 N
1+
#305600
0+
#306400
b10 N
1+
#307200
0+
#308000
b11 N
1+
#308800
0+
#309600
18
b100 N
1+
#310400
0+
#311200
b1 O
1+
#312000
0+
#312800
b10 O
1+
#313600
0+
#314400
b11 O
1+
#315200
0+
#316000
b1001 &
b1001 ,
b1001 1
1)
b100100 6
b1001 5
1$
12
17
b100 O
1+
#316800
0+
#317600
0)
b0 6
b0 5
0$
02
07
08
b0 &
b0 ,
b0 1
b0 N
b0 O
b110 P
1+
#318400
0+
#319200
b1 N
1+
#320000
0+
#320800
b10 N
1+
#321600
0+
#322400
b11 N
1+
#323200
0+
#324000
18
b100 N
1+
#324800
0+
#325600
b1 O
1+
#326400
0+
#327200
b10 O
1+
#328000
0+
#328800
b11 O
1+
#329600
0+
#330400
1)
b100100 6
b1001 5
1$
12
17
b100 O
1+
#331200
0+
#332000
0)
b0 6
b0 5
0$
02
07
08
b111 P
b0 O
b0 N
1+
#332800
0+
#333600
b1 N
1+
#334400
0+
#335200
b10 N
1+
#336000
0+
#336800
b11 N
1+
#337600
0+
#338400
18
b100 N
1+
#339200
0+
#340000
b1 O
1+
#340800
0+
#341600
b10 O
1+
#342400
0+
#343200
b11 O
1+
#344000
0+
#344800
1)
b100100 6
b1001 5
1$
12
17
b100 O
1+
#345600
0+
#346400
0)
b0 6
b0 5
0$
02
07
08
b0 &
b0 ,
b0 1
b0 N
b0 O
b1000 P
1+
#347200
0+
#348000
b1 N
1+
#348800
0+
#349600
b10 N
1+
#350400
0+
#351200
b11 N
1+
#352000
0+
#352800
18
b100 N
1+
#353600
0+
#354400
b1 O
1+
#355200
0+
#356000
b10 O
1+
#356800
0+
#357600
b11 O
1+
#358400
0+
#359200
b100100 &
b100100 ,
b100100 1
1)
b100100 6
b1001 5
1$
12
17
b100 O
1+
#360000
0+
#360800
0)
b0 6
b0 5
0$
02
07
08
b0 &
b0 ,
b0 1
b1001 P
b0 O
b0 N
1+
#361600
0+
#362400
b1 N
1+
#363200
0+
#364000
b10 N
1+
#364800
0+
#365600
b11 N
1+
#366400
0+
#367200
18
b100 N
1+
#368000
0+
#368800
b1 O
1+
#369600
0+
#370400
b10 O
1+
#371200
0+
#372000
b11 O
1+
#372800
0+
#373600
b1001 &
b1001 ,
b1001 1
1)
b100100 6
b1001 5
1$
12
17
b100 O
1+
#374400
0+
#375200
0)
b0 6
b0 5
0$
02
07
08
b0 &
b0 ,
b0 1
b0 N
b0 O
b1010 P
1+
#376000
0+
#376800
b1 N
1+
#377600
0+
#378400
b10 N
1+
#379200
0+
#380000
b11 N
1+
#380800
0+
#381600
18
b100 N
1+
#382400
0+
#383200
b1 O
1+
#384000
0+
#384800
b10 O
1+
#385600
0+
#386400
b11 O
1+
#387200
0+
#388000
1)
b100100 6
b1001 5
1$
12
17
b100 O
1+
#388800
0+
#389600
0)
b0 6
b0 5
0$
02
07
08
b1011 P
b0 O
b0 N
1+
#390400
0+
#391200
b1 N
1+
#392000
0+
#392800
b10 N
1+
#393600
0+
#394400
b11 N
1+
#395200
0+
#396000
18
b100 N
1+
#396800
0+
#397600
b1 O
1+
#398400
0+
#399200
b10 O
1+
#400000
0+
#400800
b11 O
1+
#401600
0+
#402400
1)
b100100 6
b1001 5
1$
12
17
b100 O
1+
#403200
0+
#404000
0)
b0 6
b0 5
0$
02
07
08
b0 &
b0 ,
b0 1
b0 N
b0 O
b1100 P
1+
#404800
0+
#405600
b1 N
1+
#406400
0+
#407200
b10 N
1+
#408000
0+
#408800
b11 N
1+
#409600
0+
#410400
18
b100 N
1+
#411200
0+
#412000
b1 O
1+
#412800
0+
#413600
b10 O
1+
#414400
0+
#415200
b11 O
1+
#416000
0+
#416800
b100100 &
b100100 ,
b100100 1
1)
b100100 6
b1001 5
1$
12
17
b100 O
1+
#417600
0+
#418400
0)
b0 6
b0 5
0$
02
07
08
b0 &
b0 ,
b0 1
b1101 P
b0 O
b0 N
1+
#419200
0+
#420000
b1 N
1+
#420800
0+
#421600
b10 N
1+
#422400
0+
#423200
b11 N
1+
#424000
0+
#424800
18
b100 N
1+
#425600
0+
#426400
b1 O
1+
#427200
0+
#428000
b10 O
1+
#428800
0+
#429600
b11 O
1+
#430400
0+
#431200
b1001 &
b1001 ,
b1001 1
1)
b100100 6
b1001 5
1$
12
17
b100 O
1+
#432000
0+
#432800
0)
b0 6
b0 5
0$
02
07
08
b0 &
b0 ,
b0 1
b0 N
b0 O
b1110 P
1+
#433600
0+
#434400
b1 N
1+
#435200
0+
#436000
b10 N
1+
#436800
0+
#437600
b11 N
1+
#438400
0+
#439200
18
b100 N
1+
#440000
0+
#440800
b1 O
1+
#441600
0+
#442400
b10 O
1+
#443200
0+
#444000
b11 O
1+
#444800
0+
#445600
1)
b100100 6
b1001 5
1$
12
17
b100 O
1+
#446400
0+
#447200
0)
b0 6
b0 5
0$
02
07
0(
08
b1111 P
b0 O
b0 N
1+
#448000
0+
#448800
b1 N
1+
#449600
0+
#450400
b10 N
1+
#451200
0+
#452000
b11 N
1+
#452800
0+
#453600
18
b100 N
1+
#454400
0+
#455200
b1 O
1+
#456000
0+
#456800
b10 O
1+
#457600
0+
#458400
b11 O
1+
#459200
0+
#460000
1(
1)
b100100 6
b1001 5
1$
12
17
b100 O
1+
#460800
0+
#461600
0)
b0 6
b0 5
0$
02
07
08
0(
b0 &
b0 ,
b0 1
b0 N
b0 O
b0 P
1+
#462400
0+
#463200
b1 N
1+
#464000
0+
#464800
b10 N
1+
#465600
0+
#466400
b11 N
1+
#467200
0+
#468000
18
b100 N
1+
#468800
0+
#469600
b1 O
1+
#470400
0+
#471200
b10 O
1+
#472000
0+
#472800
b11 O
1+
#473600
0+
#474400
b100100 &
b100100 ,
b100100 1
1)
b100100 6
b1001 5
1$
12
17
b100 O
1+
#475200
0+
#476000
0)
b0 6
b0 5
0$
02
07
08
b0 &
b0 ,
b0 1
b1 P
b0 O
b0 N
1+
#476800
0+
#477600
b1 N
1+
#478400
0+
#479200
b10 N
1+
#480000
0+
#480800
b11 N
1+
#481600
0+
#482400
18
b100 N
1+
#483200
0+
#484000
b1 O
1+
#484800
0+
#485600
b10 O
1+
#486400
0+
#487200
b11 O
1+
#488000
0+
#488800
b1001 &
b1001 ,
b1001 1
1)
b100100 6
b1001 5
1$
12
17
b100 O
1+
#489600
0+
#490400
0)
b0 6
b0 5
0$
02
07
08
b0 &
b0 ,
b0 1
b0 N
b0 O
b10 P
1+
#491200
0+
#492000
b1 N
1+
#492800
0+
#493600
b10 N
1+
#494400
0+
#495200
b11 N
1+
#496000
0+
#496800
18
b100 N
1+
#497600
0+
#498400
b1 O
1+
#499200
0+
#500000
b10 O
1+
#500800
0+
#501600
b11 O
1+
#502400
0+
#503200
1)
b100100 6
b1001 5
1$
12
17
b100 O
1+
#504000
0+
#504800
0)
b0 6
b0 5
0$
02
07
08
b11 P
b0 O
b0 N
1+
#505600
0+
#506400
b1 N
1+
#507200
0+
#508000
b10 N
1+
#508800
0+
#509600
b11 N
1+
#510400
0+
#511200
18
b100 N
1+
#512000
0+
#512800
b1 O
1+
#513600
0+
#514400
b10 O
1+
#515200
0+
#516000
b11 O
1+
#516800
0+
#517600
1)
b100100 6
b1001 5
1$
12
17
b100 O
1+
#518400
0+
#519200
0)
b0 6
b0 5
0$
02
07
08
b0 &
b0 ,
b0 1
b0 N
b0 O
b100 P
1+
#520000
0+
#520800
b1 N
1+
#521600
0+
#522400
b10 N
1+
#523200
0+
#524000
b11 N
1+
#524800
0+
#525600
18
b100 N
1+
#526400
0+
#527200
b1 O
1+
#528000
0+
#528800
b10 O
1+
#529600
0+
#530400
b11 O
1+
#531200
0+
#532000
b100100 &
b100100 ,
b100100 1
1)
b100100 6
b1001 5
1$
12
17
b100 O
1+
#532800
0+
#533600
0)
b0 6
b0 5
0$
02
07
08
b0 &
b0 ,
b0 1
b101 P
b0 O
b0 N
1+
#534400
0+
#535200
b1 N
1+
#536000
0+
#536800
b10 N
1+
#537600
0+
#538400
b11 N
1+
#539200
0+
#540000
18
b100 N
1+
#540800
0+
#541600
b1 O
1+
#542400
0+
#543200
b10 O
1+
#544000
0+
#544800
b11 O
1+
#545600
0+
#546400
b1001 &
b1001 ,
b1001 1
1)
b100100 6
b1001 5
1$
12
17
b100 O
1+
#547200
0+
#548000
0)
b0 6
b0 5
0$
02
07
08
b0 &
b0 ,
b0 1
b0 N
b0 O
b110 P
1+
#548800
0+
#549600
b1 N
1+
#550400
0+
#551200
b10 N
1+
#552000
0+
#552800
b11 N
1+
#553600
0+
#554400
18
b100 N
1+
#555200
0+
#556000
b1 O
1+
#556800
0+
#557600
b10 O
1+
#558400
0+
#559200
b11 O
1+
#560000
0+
#560800
1)
b100100 6
b1001 5
1$
12
17
b100 O
1+
#561600
0+
#562400
0)
b0 6
b0 5
0$
02
07
08
b111 P
b0 O
b0 N
1+
#563200
0+
#564000
b1 N
1+
#564800
0+
#565600
b10 N
1+
#566400
0+
#567200
b11 N
1+
#568000
0+
#568800
18
b100 N
1+
#569600
0+
#570400
b1 O
1+
#571200
0+
#572000
b10 O
1+
#572800
0+
#573600
b11 O
1+
#574400
0+
#575200
1)
b100100 6
b1001 5
1$
12
17
b100 O
1+
#576000
0+
#576800
0)
b0 6
b0 5
0$
02
07
08
b0 &
b0 ,
b0 1
b0 N
b0 O
b1000 P
1+
#577600
0+
#578400
b1 N
1+
#579200
0+
#580000
b10 N
1+
#580800
0+
#581600
b11 N
1+
#582400
0+
#583200
18
b100 N
1+
#584000
0+
#584800
b1 O
1+
#585600
0+
#586400
b10 O
1+
#587200
0+
#588000
b11 O
1+
#588800
0+
#589600
b100100 &
b100100 ,
b100100 1
1)
b100100 6
b1001 5
1$
12
17
b100 O
1+
#590400
0+
#591200
0)
b0 6
b0 5
0$
02
07
08
b0 &
b0 ,
b0 1
b1001 P
b0 O
b0 N
1+
#592000
0+
#592800
b1 N
1+
#593600
0+
#594400
b10 N
1+
#595200
0+
#596000
b11 N
1+
#596800
0+
#597600
18
b100 N
1+
#598400
0+
#599200
b1 O
1+
#600000
0+
#600800
b10 O
1+
#601600
0+
#602400
b11 O
1+
#603200
0+
#604000
b1001 &
b1001 ,
b1001 1
1)
b100100 6
b1001 5
1$
12
17
b100 O
1+
#604800
0+
#605600
0)
b0 6
b0 5
0$
02
07
08
b0 &
b0 ,
b0 1
b0 N
b0 O
b1010 P
1+
#606400
0+
#607200
b1 N
1+
#608000
0+
#608800
b10 N
1+
#609600
0+
#610400
b11 N
1+
#611200
0+
#612000
18
b100 N
1+
#612800
0+
#613600
b1 O
1+
#614400
0+
#615200
b10 O
1+
#616000
0+
#616800
b11 O
1+
#617600
0+
#618400
1)
b100100 6
b1001 5
1$
12
17
b100 O
1+
#619200
0+
#620000
0)
b0 6
b0 5
0$
02
07
08
b1011 P
b0 O
b0 N
1+
#620800
0+
#621600
b1 N
1+
#622400
0+
#623200
b10 N
1+
#624000
0+
#624800
b11 N
1+
#625600
0+
#626400
18
b100 N
1+
#627200
0+
#628000
b1 O
1+
#628800
0+
#629600
b10 O
1+
#630400
0+
#631200
b11 O
1+
#632000
0+
#632800
1)
b100100 6
b1001 5
1$
12
17
b100 O
1+
#633600
0+
#634400
0)
b0 6
b0 5
0$
02
07
08
b0 &
b0 ,
b0 1
b0 N
b0 O
b1100 P
1+
#635200
0+
#636000
b1 N
1+
#636800
0+
#637600
b10 N
1+
#638400
0+
#639200
b11 N
1+
#640000
0+
#640800
18
b100 N
1+
#641600
0+
#642400
b1 O
1+
#643200
0+
#644000
b10 O
1+
#644800
0+
#645600
b11 O
1+
#646400
0+
#647200
b100100 &
b100100 ,
b100100 1
1)
b100100 6
b1001 5
1$
12
17
b100 O
1+
#648000
0+
#648800
0)
b0 6
b0 5
0$
02
07
08
b0 &
b0 ,
b0 1
b1101 P
b0 O
b0 N
1+
#649600
0+
#650400
b1 N
1+
#651200
0+
#652000
b10 N
1+
#652800
0+
#653600
b11 N
1+
#654400
0+
#655200
18
b100 N
1+
#656000
0+
#656800
b1 O
1+
#657600
0+
#658400
b10 O
1+
#659200
0+
#660000
b11 O
1+
#660800
0+
#661600
b1001 &
b1001 ,
b1001 1
1)
b100100 6
b1001 5
1$
12
17
b100 O
1+
#662400
0+
#663200
0)
b0 6
b0 5
0$
02
07
08
b0 &
b0 ,
b0 1
b0 N
b0 O
b1110 P
1+
#664000
0+
#664800
b1 N
1+
#665600
0+
#666400
b10 N
1+
#667200
0+
#668000
b11 N
1+
#668800
0+
#669600
18
b100 N
1+
#670400
0+
#671200
b1 O
1+
#672000
0+
#672800
b10 O
1+
#673600
0+
#674400
b11 O
1+
#675200
0+
#676000
1)
b100100 6
b1001 5
1$
12
17
b100 O
1+
#676800
0+
#677600
0)
b0 6
b0 5
0$
02
07
0(
08
b1111 P
b0 O
b0 N
1+
#678400
0+
#679200
b1 N
1+
#680000
0+
#680800
b10 N
1+
#681600
0+
#682400
b11 N
1+
#683200
0+
#684000
18
b100 N
1+
#684800
0+
#685600
b1 O
1+
#686400
0+
#687200
b10 O
1+
#688000
0+
#688800
b11 O
1+
#689600
0+
#690400
1(
1)
b100100 6
b1001 5
1$
12
17
b100 O
1+
#691200
0+
#692000
0)
b0 6
b0 5
0$
02
07
08
0(
b0 &
b0 ,
b0 1
b0 N
b0 O
b0 P
1+
#692800
0+
#693600
b1 N
1+
#694400
0+
#695200
b10 N
1+
#696000
0+
#696800
b11 N
1+
#697600
0+
#698400
18
b100 N
1+
#699200
0+
#700000
b1 O
1+
#700800
0+
#701600
b10 O
1+
#702400
0+
#703200
b11 O
1+
#704000
0+
#704800
b100100 &
b100100 ,
b100100 1
1)
b100100 6
b1001 5
1$
12
17
b100 O
1+
#705600
0+
